LT,NPWP,NAMA,JALAN,BLOK,NOMOR,RT,RW,KECAMATAN,KELURAHAN,KABUPATEN,PROPINSI,KODE_POS,NOMOR_TELEPON
LT,20095832607000,CV. ANGKASA BUANA,Jl. Kedung Rukem I ,-,1,2,4,Tegalsari,Kedungdoro,Surabaya,Jawa Timur,60261,
LT,11088846631000,PT. LOMAX,JL. PERAK BARAT,-,89,2,12,KREMBANGAN,PERAK BARAT,SURABAYA,JAWA TIMUR,60177,031-3541139 
LT,10827814641000,PT. BETTS INDONESIA,KB. NGORO INDUSTRI PERSADA,L,1,0,0,NGORO,NGORO,MOJOKERTO,JAWA TIMUR,61385,3216819281
LT,24322992913000,CV. BERU JAYA,Jl. LALU JELANGGA,-,-,8,4,JEREWEH,BERU,SUMBAWA BARAT,NTB,0,031-70507546
LT,10017010092000,PT. UNILEVER INDONESIA Tbk.,"JL. BSD BOULEVARD BARAT GREEN OFFICE PARK KAVLING 3, BSD CITY",-,-,0,0,CISAUK,SAMPORA,TANGGERANG,BANTEN,15345,021-5262071
LT,11410750092000,PT. MASPION,Ds. SAWOTRATAP,-,-,0,0,GEDANGAN,-,SIDOARJO,JAWA TIMUR,0,031-8536993
LT,21061122113000,CV. MATAHARI ENGINEERING,Jl.Negara,-,80-B,0,0,PAHLAWAN,KOTAMADYA,MEDAN,SUMATERA UTARA,20411,061-4558668
LT,20077210641000,PT. RIDLATAMA BANGUN USAHA,JL. RADEN PATAH EKS. WORKSHOP DPU,-,-,0,0,LEBAKSONO,PUNGGING,MOJOKERTO,JAWA TIMUR,0,-
LT,27847185656000,PT. RIDLATAMA BAHTERA CONSTRUCTION,DESA GUNUNGMALANG,-,-,0,0,GUNUNG MALANG,SUBOH,SITUBONDO,JAWA TIMUR,0,
LT,19491638651000,PT. LAWANGMAS PRIMAPACK INDONESIA,DESA BEDALI,-,-,0,0,LAWANG,-,MALANG,JAWA TIMUR,0,
LT,702518705609000,CV. ROM POER SEJAHTERA,JL. KEBONSARI,V,20,6,2,JAMBANGAN,KEBONSARI,SURABAYA,JAWA TIMUR,0,
LT,211034087411000,PT. PROSERVE ENGINEERING INDONESIA,TAMAN TEKNO,E.3/1,SEK.XI,0,0,SETU,SETU,TANGERANG,BANTEN,0,
LT,26072017606000,CV. KARSA MULIA,JL. MANYAR INDAH 12,AC,12,0,0,MENUR PUMPUNGAN,SUKOLILO,SURABAYA,JAWA TIMUR,0,
LT,17884875011000,PT. DHARMA PERKASA GEMILANG,GD.PLAZA 89 LT.4 SUITE 406A JL. HR.RASUNA SAID,X-7,6,0,0,KARET KUNINGAN,SETIABUDI,JAKARTA SELATAN,DKI JAKARTA,0,
LT,702893660911000,PT. BETON RINJANI UTAMA,JL. PEJANGGIK,-,92,0,0,-,PAJANG,MATARAM,NTB,0,
LT,12698056092000,PT. WILMAR NABATI INDONESIA,"GEDUNG B & G LANTAI 9 JL. PUTRI HIJAU NO. 10 ,",-,-,0,0,MEDAN BARAT,KESAWAN,MEDAN,SUMATERA UTARA,20111,061-41023106
LT,24542292606000,PT. IKANINDO REKATAMA CIPTA,JL. PUCANG JAJAR,-,32,0,0,-,KERTAJAYA,SURABAYA,JAWA TIMUR,60282,
LT,15446230618000,CV. TELAGA SURYA,SIMP. DARMO PERMAI SELATAN,-,Feb-35,0,0,PRADAH KALIKENDAL,DUKUH PAKIS,SURABAYA,JAWA TIMUR,60226,
LT,15239304651000,PT. ANUGERAH KARYA AGRASENTOSA,JL. BESAR IJEN,-,32,0,0,KLOJEN,ORO ORO DOWO,MALANG,JAWA TIMUR,65112,
LT,12031290092000,PT. SANTOS JAYA ABADI,JL. RAYA GILANG,-,159,0,0,GILANG,TAMAN,SIDOARJO,JAWA TIMUR,61257,
LT,15657786036000,CV. NOUVAL JAYA TEKNIK,JL. DR LATUMENTEN VI,-,6,21,5,JELAMBAR,GROGOL PETAMBURAN,JAKARTA BARAT,DKI JAKARTA,0,
LT,311922611602000,PT. LAUTAN NATURAL KRIMERINDO,JL. RAYA MOJOSARI-PACET KM.04 PESANGGRAHAN,-,-,1,1,KUTOREJO,KETIDUR,MOJOKERTO,JAWA TIMUR,61383,0321-599778
LT,716358528617000,PT. JIANG FAH INDONESIA,JL. RAYA CANDI ,-,20,2,3,CANDI,KEBONSARI,SIDOARJO,JAWA TIMUR,61271,
LT,15326135631000,CV. PACIFIC,JL. SAMBAS,-,10,0,0,WONOKROMO,DARMO,SURABAYA,JAWA TIMUR,60241,
LT,11224839641000,PT. SURABAYA MEKABOX LTD,JL. RAYA BAMBE ,-,-,0,0,DRIYOREJO,-,GRESIK,JAWA TIMUR,0,
LT,12333423641000,PT. GLORIA BISCO,JL. KELUD,-,26,0,0,DRIYOREJO,BAMBE,GRESIK,JAWA TIMUR,0,
LT,662129238623000,PT. SAKTI BISCO,JL. LAKS MARTADINATA,-,6-Apr,3,4,KLOJEN,SUKOHARJO,MALANG,JAWA TIMUR,0,
LT,11225356054000,PT. INDAL ALUMINIUM INDUSTRY,DS. SAWOTRATAP,-,-,0,0,GEDANGAN,-,SIDOARJO,JAWA TIMUR,0,
LT,32381204615000,PT. PIONIR TRANSMISI HUTAMA,RUKO RUNGKUT MAKMUR,C,62,0,0,RUNGKUT,KALIRUNGKUT,SURABAYA,JAWA TIMUR,60293,031-51512158
LT,15324585604000,PT. GOLDEN PUTERAPERKASA,JL. KARANGPOH,-,19,0,0,-,-,SURABAYA ,JAWA TIMUR,0,
LT,313154080642000,PT. GOLDEN BOX INDONESIA,JL. CUKLING,-,-,5,2,WRINGIN ANOM,WRINGIN ANOM,GRESIK,JAWA TIMUR,0,
LT,29935319615000,PT. GOLDEN UNION OIL,TAMBAK SAWAH ,-,8,0,0,WARU,TAMBAKSAWAH,SIDOARJO,JAWA TIMUR,0,
LT,11329398631000,PT. SUSANTI MEGAH,JL. DUPAK RUKUN,-,71-73,0,0,ASEMROWO,ASEMROWO,SURABAYA,JAWA TIMUR,0,
LT,316204312609000,PT. SUKSES GEMILANG DIAMOND,RUKO SURYA INTI PERMATA,C,61-62,9,5,WONOCOLO,SIWALAN KERTO,SURABAYA,JAWA TIMUR,0,
LT,26379164603000,PT. TEKTROINDO ANUGERAH SUKSES ABADI,JL. GAJAH MADA ,-,4,0,0,KEDUNGTURI,-,SIDOARJO,JAWA TIMUR,61257,
LT,312909781619000,CV. KIONG HO,KYAI TAMBAK DERES,-,163,2,4,BULAK,BULAK ,SURABAYA,JAWA TIMUR,60124,
LT,23715949012000,PT. SAGO PRIMA PRATAMA,EQUITY TOWER LT.48 UNIT E SCBD LOT.9 JL. JEND SUDIRMAN KAV.52-53,-,-,0,0,KEB. BARU,-,JAKARTA SELATAN,DKI JAKARTA,0,
LT,10720845091000,PT. J RESOURCES BOLAANG MONGONDOW,"JL. JHONI SUHODO NO. 41 , LINGKUNGAN IV ",-,- ,0,0,KOTAMOBAGU TIMUR,KOTABANGON,KOTAMOBAGU,SULAWESI UTARA,95712,
LT,24219644026000,PT. BORNEO ALAM SEMESTA,JL. PANGERAN JAYAKARTA 121,-,58,0,0,SAWAH BESAR,MANGGA DUA SELATAN,JAKARTA,DKI JAKARTA RAYA,0,
LT,24143968056000,PT. BATUTUA TEMBAGA RAYA,PATRA OFFICE TOWER LT. IX RUANG 931 JL. JEND GATOT SUBROTO,-,32 - 34,0,0,SETIABUDI,-,JAKARTA SELATAN,DKI JAKARTA RAYA,12950,
LT,11444130607000,CV. SAMACO,JL. TEGALSARI ,-,48,3,1,TEGALSARI,TEGALSARI,SURABAYA,JAWA TIMUR,60262,
LT,30474266039000,PT. DYNAGEAR PANDU PRATAMA,DAAN MOGOT ARCADIA,G.20,16,0,0,BATU CEPER,BATU CEPER,TANGERANG,BANTEN,0,IMELDA (021-29006313)
LT,12334538641000,PT. SARIGUNA PRIMATIRTA,JL. RAYA A. YANI,-,41-43,0,0,GEDANGAN,-,SIDOARJO,JAWA TIMUR,61254,
LT,25158114643000,CV. BINTANG INTI PRATAMA,PERUM TAMAN ASRI JL. TROPODO I,J,2,17,2,WARU,TROPODO,SIDOARJO,JAWA TIMUR,61256,
LT,312301716652000,CV. INTI KARYA TEKNIK,JL. LAKSDA ADISUCIPTO,-,287,0,0,BLIMBING,PANDANWANGI,MALANG,JAWA TIMUR,65124,
LT,33208216504000,CV. TIRTAMAS ENGINEERING,MUARAMAS XI,C,339,4,3,SEMARANG UTARA,PANGGUNG LOR,SEMARANG,JAWA TENGAH,0,
LT,312583487643000,PT. TIRTAMAS LESTARI,JL. PALEM ,TC,20-21 PCI,5,2,WARU,WADUNGASRI,SIDOARJO,JAWA TIMUR,61256,
LT,317119857603000,CV. NIAGARA PRIMA,JL. UNTUNG SUROPATI,-,-,1,3,PRAMBON,WATUTULIS,SIDOARJO,JAWA TIMUR,61264,031-8981640
LT,315672907604000,CV. BUILDING MATERIAL CONSTRUCTION,SATELITE TOWN SQUARE,B,9,0,0,SUKOMANUNGGAL,SUKO MANUNGGAL,SURABAYA,JAWA TIMUR,0,031-7319880 (303)
LT,11225406641000,PT. PANGGUNG ELECTRIC CITRABUANA,JL. RAYA WARU,-,1,0,0,WARU,-,SIDOARJO,JAWA TIMUR ,61256,
LT,11085222631000,PT. INDONESIA MULTI COLOUR PRINTING,JL. RUNGKUT INDUSTRI,I,10,1,5,TENGGILIS MEJOYO,KENDANGSARI,SURABAYA,JAWA TIMUR ,60292,031-8438702
LT,16729626631000,PT. WEISS TECH,JL. KENJERAN ,-,559,0,0,MULYOREJO,KALIJUDAN,SURABAYA,JAWA TIMUR,0,
LT,210167441653000,CV. GARUDA INDAH JAYA,JL. RAMBUTAN,-,-,4,1,SRENGAT,WONOREJO,BLITAR,JAWA TIMUR,0,
LT,24579732615000,PT. MASTER DAYA UTAMA,RUKO RUNGKUT MAKMUR,C,27-28,4,7,RUNGKUT,KALIRUNGKUT,SURABAYA,JAWA TIMUR,60293,
LT,25296872641000,CV. SURABAYA PLASTIK HARAPAN,JL. RAYA BAMBE,-,-,0,0,DRIYOREJO,BAMBE,GRESIK,JAWA TIMUR,0,
LT,28810646036000,PT. SURYA HARAPAN KENCANA MANDIRI,JL. MANDALA UTARA ,-,30,7,4,PETAMBURAN,TOMANG GROGOL,JAKARTA BARAT,DKI JAKARTA RAYA,11440,
LT,29930856092000,PT. INDOFOOD CBP SUKSES MAKMUR Tbk,SUDIRMAN PLAZA - INDOFOOD TOWER LT.23 JL. JEND SUDIRMAN,-,76-78,0,0,SETIABUDI,SETIABUDI,JAKARTA SELATAN,DKI JAKARTA RAYA,12910,
LT,25665175032000,PT. LUKES INDONESIA,JL. HAYAM WURUK NO.127 LINDETEVES TRADE CENTER LT. UG,B1,6,0,0,TAMANSARI,-,JAKARTA BARAT,DKI JAKARTA RAYA,11180,021-62317842
LT,18017038725000,PT. HIDUP BARU PERDANA ABADI,"JL. MULAWARMAN NO.155  ,  RT.59",-,-,0,0,BALIKPAPAN SELATAN,SEPINGGAN,BALIKPAPAN,KALIMANTAN TIMUR,76115,0542-761425
LT,10017325092000,"PT. STEEL PIPE INDUSTRY OF INDONESIA, Tbk",JL. KALIBUTUH,-,189-191,2,5,BUBUTAN,TEMBOK DUKUH ,SURABAYA,JAWA TIMUR ,60173,031-5320921
LT,23702384641000,CV. CITRA KARYA,SEPANJANG TOWN HOUSE,H,8,0,0,TAMAN ,KALIJATEN,SIDOARJO,JAWA TIMUR,0,031-8270317
LT,21139969604000,CV. DINAMIKA UTAMA JAYA,RAYA KENDUNG,-,7,7,2,BENOWO,SEMEMI,SURABAYA,JAWA TIMUR,60198,031 - 7401384
LT,16616260641000,PT. ANEKA INDOMAKMUR,JL. SUROWONGSO,-,415-A,0,0,GEDANGAN,KARANGBONG,SIDOARJO,JAWA TIMUR,0,031-8910560
LT,14542799614000,CV. TRI TEKNIKA ANUGERAH,JL. RADEN SALEH,-,16E,0,0,BUBUTAN,BUBUTAN,SURABAYA,JAWA TIMUR,60174,031-5310310
LT,21762927606000,CV. DUA IKAN ENGINEERING & CHEMICALS ,JL. NGINDEN INTAN TENGAH 17,-,-,0,0,SUKOLILO,NGINDEN JANGKUNGAN,SURABAYA,JAWA TIMUR,0,031-5965730
LT,21828769643000,PT. BUANA LESTARI ABADI,RUKO GATEWAY,E,5,0,0,GEDANGAN,SAWOTRATAP,SIDOARJO,JAWA TIMUR,0,
LT,13608872062000,PT. INTI KARYA PERSADA TEHNIK,JL. MT HARYONO,-,5-Apr,0,0,TEBET,KEBON BARU ,JAKARTA SELATAN,DKI JAKARTA RAYA,12820,
LT,14684591631000,CV. NASIONAL AGUNG JAYA,RUNGKUT INDUSTRI,IV,8,0,0,TENGGILIS MEJOYO,KUTISARI,SURABAYA,JAWA TIMUR,60291,031-8473888
LT,701487803654000,PT. GALUS UNGGUL JAYA,DUSUN JATISARI,-,-,1,13,NGAJUM,NGAJUM,MALANG,JAWA TIMUR,0,
LT,12032652641000,PT. AVIA AVIAN,DESA WADUNG ASIH,-,-,0,0,BUDURAN,WADUNGASIH,SIDOARJO,JAWA TIMUR,0,031-8968000
LT,10020915052000,PT. BEIERSDORF INDONESIA,GEDUNG RATU PRABU II LT. 5 JL. TB SIMATUPANG,-,1B,8,3,PASAR MINGGU,-,JAKARTA SELATAN,DKI JAKARTA RAYA,12560,
LT,0,MEGA TEKNIK,JL. SEMARANG,-,-,0,0,-,-,SURABAYA,JATIM,0,
LT,17242041504000,PT. SINAR PERMATA GLOBAL,JL. MT HARYONO,C,760-762,0,0,SEMARANG TIMUR,KARANGTURI,SEMARANG,JAWA TENGAH,50124,024-70258297
LT,26223982604000,CV. KHARISMA ABADI,JL. MANUKAN KULON,D-14,60,7,10,TANDES,MANUKAN KULON,SURABAYA,JAWA TIMUR,0,031-7458045
LT,708067459614000,PT. SINAR AGUNG ABADI,JL. PAHLAWAN,-,60,0,0,BUBUTAN,ALUN - ALUN CONTONG,SURABAYA,JAWA TIMUR,0,
LT,313278731651000,PT. SINAR KENCANA AGUNG,JL. KYAI TAMIN ,-,115,0,0,KLOJEN,SUKOHARJO,MALANG,JAWA TIMUR,0,
LT,15587900431000,PT. AGEL LANGGENG,JL. RAYA SULTAN AGUNG KM. 27,-,-,2,7,MEDAN SATRIA,-,BEKASI,JAWA BARAT,17132,
LT,11232196651000,PT. NEW MINATEX,JL. INDROKILO SELATAN,-,7,0,0,LAWANG,BEDALI,MALANG,JAWA TIMUR ,65215,
LT,25255175641000,PT. STAR PAPER SUPPLY,DS. MANDUROMANGGUNGGAJAH,-,-,0,0,NGORO,MANDUROMANGGUNGGAJAH,MOJOKERTO,JAWA TIMUR,0,
LT,14387369641000,PT. INDOPICRI,JL. RAYA SUMPUT,-,17,0,0,DRIYOREJO,SUMPUT,GRESIK,JAWA TIMUR,61177,
LT,19492214651000,PT. EKA TIMUR RAYA,JL. RAYA NONGKOJAJAR KM. 1.4,-,-,1,5,PURWODADI,COWEK,PASURUAN,JAWA TIMUR,67163,0343-613650
LT,5875901611000,DINAS PU BINA MARGA DAN PEMATUSAN KOTA SURABAYA,JL. JIMERO ,-,8-Jun,0,0,GENTENG,KETABANG,SURABAYA,JAWA TIMUR,0,
LT,15462153615000,CV. KORIN INTIWIRA ENGINEERING,KH. ZAHHURI ,-,29 - 31,1,1,GUNUNG ANYAR,RUNGKUT TENGAH,SURABAYA,JAWA TIMUR,0,
LT,317650034618000,CV. KRISMA PERKASA ENGINEERING,SIMPANG DARMO PERMAI SELATAN,-,May-51,6,8,DUKUH PAKIS,PRADAH KALI KENDAL,SURABAYA,JAWA TIMUR,60226,
LT,18687020055000,PT. UACJ INDAL ALUMINUM,DESA SUKOMULYA,-,-,0,0,MANYAR,-,GRESIK,JAWA TIMUR,0,
LT,11220969054000,PT. SUPARMA,JL. MASTRIP,-,856,0,0,KARANGPILANG ,KARANGPILANG - WARUGUNUNG,SURABAYA,JAWA TIMUR,0,
LT,10006294055000,PT. JAYKAY FILES INDONESIA,JL. SUKODONO,-,-,8,3,GEDANGAN,KEBOANSIKEP,SIDOARJO,JAWA TIMUR,0,
LT,18532077441000,PT. KINO INDONESIA Tbk,JL. CIBOLERANG 203 KAV. 03,-,-,0,0,BABAKAN CIPARAY,MARGASUKA,BANDUNG,JAWA BARAT,0,0343-635548
LT,23847148651000,PT. SINAR PANGAN SEJAHTERA,"JL. WICAKSONO, DSN. TALUN",-,-,0,0,BEJI ,GUNUNG GANGSIR,PASURUAN ,JAWA TIMUR,67154,
LT,24544884606000,PT. BIMA SAKTI LUHUR,JL. KRUKAH TIMUR,I,3,0,0,BARATAJAYA,-,SURABAYA,JAWA TIMUR,60284,
LT,23694649651000,PT. MERAPI AGUNG LESTARI,JL. RAYA PANDAN LANDUNG,-,-,5,1,WAGIR,-,MALANG,JAWA TIMUR,65158,
LT,23844525651000,PT. WINAROS KAWULA BAHARI,JL. RAYA CANGKRING MALANG KM. 39.4,-,-,0,0,BEJI,CANGKRING MALANG,PASURUAN,JAWA TIMUR,0,
LT,15237563651000,PT. NUGROHO LESTARI,JL. CILIWUNG ,-,12,1,13,BLIMBING,PURWANTORO,MALANG,JAWA TIMUR,0,
LT,312628589403000,PT. ADIPRASETYA TEKNIK,PERUM PURI NIRWANA I,L,16,2,16,CIBINONG,PABUARAN,BOGOR,JAWA BARAT,0,
LT,32993602626000,CV. COMBUTION TECHNOLOGIES ASIA NUSANTARA,JL. WOLTER MONINSIDI,-,26,0,0,AJUNG,ROWO INDAH,JEMBER,JAWA TIMUR,68171,
LT,14297592614000,PT. INJAPLAST,JL. MARGOMULYO ,-,35,0,0,MARGOMULYO,-,SURABAYA,JAWA TIMUR,0,
LT,359739208655000,ADRIAN,JL. SUPRIADI,-,-,3,11,PARE,GEDANG SEWU,KEDIRI,JAWA TIMUR,0,0354-396008
LT,316005776617000,PT. MATABIRU INDONESIA,ISTANA MENTARI REGENCY ,C3,28,11,5,SIDOARJO,CEMENGKALANG,SIDOARJO,JAWA TIMUR,0,
LT,31201015603000,PT. INDONESIA CELLULAR CONCRETE,BAKALAN WRINGINPITU,-,-,1,1,BALONGBENDO,-,SIDOARJO,JAWA TIMUR,0,
LT,30822258604000,PT. BERKAT PRIMATECH ABADI,JL. DARMO BARU TIMUR ,-,4-Feb,2,4,SUKO MANUNGGAL,SONO KWIJENAN,SURABAYA,JAWA TIMUR,60189,
LT,19762897618000,CV. AGUNG SENTRA SOLUSI,RAYA WIYUNG BARU,BB,8,3,7,WIYUNG,-,SURABAYA,JAWA TIMUR,0,
LT,15266554614000,PT. SURYA INDOALGAS,"JL. KERTAJAYA INDAH TIMUR, RUKO MEGA GALAXY ",16-A,12,0,0,SUKOLILO,KLAMPIS NGASEM,SURABAYA,JAWA TIMUR,0,031-5482012
LT,11081452613000,CV. MAKIN JAYA ABADI,JL. GILI ,-,7-Jan,0,0,PABEAN CANTIAN,NYAMPLUNGAN,SURABAYA,JAWA TIMUR,60162,
LT,28275642643000,PT. VODA INDONESIA,KOMP. PERGUDANGAN TANRISE SOUTHGATE ,C,11,0,0,GEDANGAN,SRUNI,SIDOARJO,JAWA TIMUR,0,
LT,12031902619000,CV. ALPHA OMEGA,JL. GUBENG MASJID,-,55,3,7,TAMBAKSARI,PACARKELING,SURABAYA,JAWA TIMUR,60131,031-5030108
LT,31055213643000,PT. INTERPACK,JL. RAYA CANGKIR KM.21  NO. 302 - G,-,-,0,0,DRIYOREJO,CANGKIR,GRESIK,JAWA TIMUR,0,
LT,14682330651000,PT. INTIM HARMONIS FOODS INDUSTRI,JL. RAYA JOMBOR BAWAH KM. 53,-,-,0,0,SUKOREJO,LEMAHBANG,PASURUAN,JAWA TIMUR,0,
LT,19954296641000,PT. BUANA TIRTA UTAMA,JL. KIG RAYA BARAT KAV. G,-,5-Apr,0,0,KEBOMAS,RANDU AGUNG,GRESIK,JAWA TIMUR,61121,031-3986921 / 3986925
LT,15310923616000,PT. MANDALA SETIA,JL. DONOREJO WETAN,-,81,0,0,SIMOKERTO,KAPASAN,SURABAYA,JAWA TIMUR,0,
LT,316799006643000,PT. ROFIS JAYA PERKASA,PERUM PURI SURYA JAYA  ,B,18-May,2,11,GEDANGAN,GEDANGAN,SIDOARJO,JAWA TIMUR,61254,81288913286
LT,18596270038000,PT. RODA ROLLEN INDONESIA,Komp Pertokoan Glodok Jaya No. 30 Jalan Hayam Wuruk ,0,30,0,0,Mangga Besar,Mangga Besar,Jakarta Barat,Jawa Barat,11180,
LT,15996119606000,PT. ISTANA POMPA,Ngagel Madya No. 71,0,71,0,0,Gubeng ,Baratajaya,Surabaya,Jawa Timur,0,
LT,19041417026000,PT. KURNIA MULIA CITRA LESTARI,Jl. P Jayakarta 141 D No. 14,-,-,0,0,Jakarta Pusat,Mangga Dua Selatan,Jakarta,Jawa Barat,0,
LT,16596652032000,PT. DELTAKITA TATAJAYA,Glodok Jaya Blok A - 14 Lt II Mangga Besar,-,-,0,0,Jakarta Barat,Mangga Besar,Jakarta,Jawa Barat,0,
LT,25302191026000,PT. SOUTHERN INDONESIA,Jl. P Jayakarta 141 Blok No. 6 Mangga Dua Selatan,-,-,0,0,Jakarta Pusat,Mangga Dua Selatan,Jakarta,Jawa barat,0,
LT,10602977055000,PT. TECO MULTIGUNA ELEKTRO,Jl. Bandengan Utara No. 83/1-2-3 Penjaringan,-,-,0,0,JAKARTA UTARA,PENJARINGAN,JAKARTA,JAWA BARAT,0,
LT,13480306073000,PT. SENTRATEK ADIPRESTASI,"Jl. INDUSTRI RAYA NO. 1/B3, GUNUNG SAHARI UTARA",-,-,0,0,JAKARTA PUSAT,GUNUNG SAHARI UTARA,JAKARTA,JAWA BARAT,0,
LT,10832863052000,PT. SORINI TOWA BERLIAN CORPORINDO,DESA CANGKRINGMALANG,-,-,0,0,-,BEJI,PASURUAN,JAWA TIMUR,67154,
LT,22573372612000,PT. SURYA CIPTA BARU,JL. RAYA TEBALOAN,-,-,3,1,TEBALOAN,DUDUKSAMPEYAN,GRESIK,JAWA TIMUR,61152,
LT,18698225058000,PT. PORTEK INDONESIA,JL. BOULEVARD ARTHA GADING,A6-A & A6-B,17 & 32,19,8,KELAPA GADING BARAT,KELAPA GADING,JAKARTA UTARA,DKI JAKARTA RAYA,14240,021-2962999
LT,14386338641000,PT. SURYA ADIKUMALA ABADI,JL. RAYA TROPODO,-,126 A,0,0,TROPODO,WARU,SIDOARJO,JAWA TIMUR,0,
LT,15460538641000,PT. MEGASURYA MAS,JL. TAMBAK SAWAH,-,32,0,0,WARU,TAMBAKSAWAH,SIDOARJO,JAWA TIMUR,61256,031-8662390
LT,27775022602000,CV. KIRMIZHI FOAM,JL. RAYA MOJOKUMPUL DSN. SAMBIGEDE,-,18,0,0,KEMLAGI,MOJOKUMPUL,MOJOKERTO,JAWA TIMUR,0,0321-3716491/363188
LT,19293638615000,PT. ANUGRAH DHARMA KENCANA,RUNGKUT KIDUL RK 5,G,29,0,0,RUNGKUT,RUNGKUT KIDUL,SURABAYA,JAWA TIMUR,60293,031-8554319
LT,314904657603000,PT. KAIROS SOLUSI INDONESIA,STAR SAFIRA REGENCY,B4,2,5,10,SUKODONO,SUKO,SIDOARJO,JAWA TIMUR,0,
LT,13444732032000,PT. ANEKAMAKMUR TEKNIK NUSAJAYA,"JL. HAYAM WURUK, PERTOKOAN GLODOK MAKMUR",-,32,0,0,TAMANSARI,MANGGA BESAR,JAKARTA BARAT,DKI JAKARTA RAYA,0,021-6262975
LT,23917164643000,PT. LINTANG MAS SAKTI,RUKO GATEWAY E-5,-,-,0,0,GEDANGAN ,SAWOTRATAP,SIDOARJO,JAWA TIMUR,0,
LT,33405846815000,CV. SUBUR SETIA SEJATI,KOMP. PERUM GRAHA MOMAHE ANTAM,-,-,0,0,POMALAA,PESOUHA,KOLAKA,SULAWESI TENGGARA,93562,0822-44455289
LT,12023974511000,PT. DJARUM,Jalan Jendral A. YANI,-,28,0,0,-,-,KUDUS,JAWA TENGAH,0,
LT,22045009509000,CV. SEKAWAN EKA TEHNIK,Jalan PEKOJAN ,-,80,0,0,-,-,SEMARANG,JAWA TENGAH,0,
LT,15462815641000,PT. FERROMATIK PRIMA ENGINEERING,JL. TAMBAK SAWAH ,-,6A,0,0,WARU,TAMBAKSAWAH ,SIDOARJO,JAWA TIMUR,0,
LT,19419142607000,CV. TRIJAYA TEKNIK,JL. WONOREJO ,II,22,1,4,TEGALSARI,WONOREJO ,SURABAYA,JAWA TIMUR,60263,031-8686378
LT,14802086054000,PT. SIANTAR TOP Tbk.,Jl. TAMBAK SAWAH ,-,21-23,0,0,SIDOARJO,-,SIDOARJO,JAWA TIMUR,61200,
LT,10718260052000,PT. KOBIN KERAMIK INDUSTRI,KAWASAN INDUSTRI NGORO INDUSTRI PERSADA,O,7-May,0,0,NGORO,NGORO,MOJOKERTO,JAWA TIMUR,0,
LT,17219452641000,PT. KARYA MURNI INDOCIPTA,NGORO INDUSTRI PERSADA,V,2,0,0,NGORO,-,MOJOKERTO,JAWA TIMUR,0,
LT,314308628642000,PT. GRESIK PRIMA UTAMA,JL. RAYA WRINGINANOM KM 30.6 ,-,-,0,0,WRINGINANOM,SUMENGKO,GRESIK,JAWA TIMUR,0,
LT,22069074613000,PT. LIGA TECHNIC,JL. KALIAGUNG 2,B,9,0,0,NYAMPLUNGAN,-,SURABAYA,JAWA TIMUR,60162,
LT,31255425609000,PT. INDO ELEKTRINDO,SIDOSERMO INDAH,X,19,0,0,WONOCOLO,SIDOSERMO,SURABAYA,JAWA TIMUR,0,
LT,10713097052000,PT. KEMIRA CHEMICALS INDONESIA,JL. REMBANG INDUSTRI III/32 PIER ,-,-,0,0,REMBANG,REMBANG,PASURUAN,JAWA TIMUR,67152,0343-740127
LT,22317499915000,PT. SARANA LOMBOK UTAMA,KOMPLEK PELABUHAN LEMBAR,-,-,0,0,LEMBAR,LEMBAR,LOMBOK BARAT,NTB,83364,85239941111
LT,14296099631000,PT. INDOXIDE,JL. SERUNI,-,33,7,9,GENTENG,KETABANG,SURABAYA,JAWA TIMUR,60272,
LT,29098472606000,CV. JAYA RAYA DINAMIC,JL. NGAGEL MADYA,-,52,3,1,GUBENG,BARATAJAYA,SURABAYA,JAWA TIMUR,60284,031-5028618
LT,18371930048000,PT. DWIPUTRA PRANATA JAYA,DANAU SUNTER SELATAN BLOK B NO.12 PERKANTORAN ROYAL SUNTER,-,-,0,0,TANJUNG PRIOK,SUNTER JAYA,JAKARTA UTARA,DKI JAKARTA RAYA,0,
LT,15265515631000,PT. ADYABUANA PERSADA,MLIWIS,-,37,0,0,KREMBANGAN,KREMBANGAN SELATAN,SURABAYA,JAWA TIMUR,60175,031-5325886
LT,735823510804000,CV. GLOBAL ELECTRIC,JL. GUNUNG LOMPO BATTANG,-,150,2,1,UJUNG PANDANG ,LAJANGIRU,MAKASAR,SULAWESI SELATAN,0,
LT,20260113641000,PT. CAHAYA POLES MULIA,JL. TROPODO II,-,20,0,0,WARU,TROPODO,SIDOARJO,JAWA TIMUR,0,
LT,16813990618000,PT. LINTAS MITRA JAYA,JL. WIYUNG BRANTAS PERMAI,II,20,1,5,WIYUNG,WIYUNG,SURABAYA,JAWA TIMUR,60226,
LT,23919517641000,PT. ECCO TANNERY INDONESIA,JL. RAYA BLIGO,-,17,0,0,CANDI,TENGGULUNAN,SIDOARJO,JAWA TIMUR,0,
LT,13607437054000,PT. INDO ACIDATAMA Tbk.,"GRAHA KENCANA LT.9 , JL. RAYA PERJUANGAN",-,88,0,0,KEBON JERUK,KEBON JERUK,JAKARTA BARAT,DKI JAKARTA RAYA ,11530,-
LT,19228154641000,PT. SENTRA PANGAN UTAMA,"JL. RAYA WRINGINANOM KM. 30,2 ",-,-,0,0,WRINGINANOM,SUMENGKO ,GRESIK,JAWA TIMUR,61176,031 - 8984888
LT,28257558615000,CV. MURNI TEHNIK,RUNGKUT ASRI TENGAH XII/18,-,-,3,11,RUNGKUT ,RUNGKUT KIDUL,SURABAYA,JAWA TIMUR,60293,
LT,710827957643000,PT. ANUGERAH PERKASA ABADI JAYA ,PERGUDANGAN PLATINUM JL. LINGKAR TIMUR ,B,1,14,4,BUDURAN,SIWALANPANJI,SIDOARJO,JAWA TIMUR,0,
LT,17929910606000,PT. BETON PRIMA INDONESIA,RAYA KERTAJAYA INDAH,P,116,0,0,GUBENG,GEBANG PUTIH,SURABAYA,JAWA TIMUR,60117,
LT,15344641732000,PT. BANDANGANTIRTA AGUNG,JL. PM NOOR KM. 47 MANDIANGIN,-,-,0,0,KARANG INTAN,PADANG PANJANG,BANJAR BARU,KALIMANTAN SELATAN,70661,
LT,22069637613000,CV. SARANA INDO TEHNIK,JL. SEMUT ,I,34,0,0,PABEAN CANTIAN,BONGKARAN ,SURABAYA,JAWA TIMUR,0,
LT,10712701052000,PT. NUPLEX RAUNG RESINS,JL. RUNGKUT INDUSTRI II / 47,-,-,0,0,-,-,SURABAYA,JAWA TIMUR,0,
LT,313512147619000,PT. SURYA UTAMA AGUNG TEKNIK,KERTAJAYA INDAH ,8G,512,1,9,MULYOREJO,MANYAR SABRANGAN,SURABAYA,JAWA TIMUR,60116,
LT,315955666602000,PT. TOMATEC INDONESIA,KAWASAN INDUSTRI NGORO INDUSTRIAL PARK,B2,3A,0,0,NGORO,LOLAWANG,MOJOKERTO,JAWA TIMUR,0,
LT,24974891725000,PT. BALIKPAPAN READY MIX PILE,JL. SULTAN HASANUDDIN,-,-,7,0,BALIKPAPAN BARAT,KARIANGAU,BALIKPAPAN,KALIMANTAN TIMUR,76143,
LT,70384151613001,R. JAROT ANGKAWIEJAYA ( UD.UNTUNG JAYA) ,KALIAGUNG I/1,E,-,0,0,PABEAN CANTIKAN,NYAMPLUNGAN,SURABAYA,JAWA TIMUR,60162,
LT,11094562641000,PT. LEEWON INDUSTRIAL,JL. STASIUN INDRO,-,-,0,0,GRESIK,SIDORUKUN,GRESIK,JAWA TIMUR,61112,031-3981612-3
LT,25608480643000,CV. TIGA BINTANG ENGINEERING,JL. WALET ,-,4,1,9,WARU,WEDORO,SIDOARJO,JAWA TIMUR,61256,031-8539922
LT,32693715027000,PT. TSURUMI POMPA  INDONESIA,Mega Glodok Kemayoran LT UG Jl. Angkasa Kav B-6 Jakarta Pusat,A5,2,0,0,______,_______,_______,DKI JAKARTA,0,
LT,20056016056000,PT. NORD INDONESIA,Jl. MH. Thamrin Komplek Multi Guna  Pakulonan Tangerang Selatan,D,1,0,0,__________,_________,__________,Jawa Barat,0,
LT,15923469402000,PT. ALVITAMA SENTOSA,"Bandara Mas , Tangerang",A.6,26,0,0,-,-,-,-,0,
LT,18390419606000,PT. SUMBER WAJA LESTARI,Ngagel  Jaya Selatan RWM  Baratajaya Surabaya,E,9,0,0,_______,________,_________,Jawa Timur,0,
LT,32993008451000,PT. OLBIN PUMP INDONESIA,RUKO FLOURITE GADING SERPONG,-,60,0,0,KELAPA DUA,PAKULONAN BARAT ,TANGGERANG,BANTEN,15810,
LT,13393392038000,PT. BADJA ABADI SENTOSA,Pertokoan Glodok jaya,-,90-91,0,0,-,-,Jakarta barat,DKI JAKARTA,0,
LT,15407059073000,PT. INDOBARA BAHANA,GUNUNG SAHARI,-,57 C,0,0,GUNUNG SAHARI SELATAN,-,JAKARTA PUSAT,DKI JAKARTA,0,
LT,13303839038000,PT. RIYADI PUTERA MAKMUR,"Komplek Glodok Jaya No. 48, Jl. Hayam Wuruk ",________,_____,0,0,JAKRTA BARAT,MANGGA BESAR,JAKARTA BARAT,DKI JAKARTA,0,
LT,19185164603000,CV. ARTHA KARYA ABADI,TAWANGSARI PERMAI ,A,137,0,0,TAMAN,TAWANGSARI,SIDOARJO,JAWA TIMUR,61257,
LT,13861885057000,PT. PABRIK GULA GORONTALO,RESIDEN SUDIRMAN 30 RT.02/V,-,-,0,0,TAMBAKSARI,PACAR KELING,SURABAYA,JAWA TIMUR,60131,-
LT,211382825125000,CV. RIMBA INDONESIA,JL.INDUSTRI GG MESJID DUSUN I,-,-,0,0,TANJUNG MORAWA,TANJUNG MORAWA B,DELI SERDANG,SUMATERA UTARA,20362,-
LT,12328191651000,PT. CHOPINDO SEJAHTERA MFG & CO,JL. RAYA KEJAPANAN,-,37,3,13,GEMPOL,KEJAPANAN,PASURUAN,JAWA TIMUR,67155,-
LT,11230877651000,PT. KARYA NIAGA BERSAMA,JL. TERUSAN BATU - BARA,-,27 - 29,0,0,BLIMBING,PANDANWANGI,MALANG,JAWA TIMUR,0,-
LT,11312246532000,PT. KONIMEX,-,-,-,0,0,GROGOL,SANGGRAHAN,SUKOHARJO,JAWA TENGAH,57552,0271-716246
LT,316170034039000,PT. SUMBER INTAN PERKASA CHEMINDO,JL. DURI KEPA TERUSAN TOL,-,57 C,0,0,KEBON JERUK,DURI KEPA,JAKARTA BARAT,DKI JAKARTA RAYA,11510,
LT,18745778631000,PT. LINTECH DUTA PRATAMA,RAYA MASTRIP 70 WIRA JATIM ,-,-,0,0,KARANGPILANG,KARANGPILANG,SURABAYA,JAWA TIMUR,60221,031-7666891
LT,32928533614000,PT. DARMAWAN PUTRA PERKASA,RUKO DUPAK MUTIARA 63,D,18,0,0,BUBUTAN,GUNDIH,SURABAYA,JAWA TIMUR,0,
LT,27772300619000,CV. SYNERGY MULIATAMA,JL. MANYAR TEGAL ,-,17,1,12,MULYOREJO ,MANYAR SABRANGAN,SURABAYA,JAWA TIMUR,0,
LT,311880728113000,PT. MAJU BERSAMA DRIVINDO,JL. SURYA LINGK. XII,-,7,0,0,MEDAN TEMBUNG,INDRA KASIH,MEDAN,SUMATERA UTARA,20221,
LT,18136119619000,CV. VEROTEK INTI PRIMA,JL. KENJERAN 475 - 481,C,17,0,0,TAMBAKSARI,GADING,SURABAYA,JAWA TIMUR,0,
LT,28228807643000,PT. MITRA USAHA ABADI,JL. MUNCUL,-,16,0,0,GEDANGAN,GEDANGAN,SIDOARJO,JAWA TIMUR,61254,
LT,10816072631000,PT. ALBEA RIGID PACKAGING SURABAYA,JL. RUNGKUT INDUSTRI ,IV,23,0,0,GUNUNG ANYAR,-,SURABAYA,JAWA TIMUR,60293,031-8414900
LT,30822720604000,PT. DWIJAYA TEKNIK,JL. RAYA WISMA LIDAH KULON,-,77,0,0,LAKAR SANTRI,LIDAH KULON,SURABAYA,JAWA TIMUR,60213,
LT,25609959643000,CV. HANINDO,KOMPLEK PERGUDANGAN PT. MEIKO ABADI,C,63A,5,2,GEDANGAN,WEDI,SIDOARJO,JAWA TIMUR,61254,
LT,24337586063000,PT. PERSADA BUMI CIPTA,MENARA KARYA LT. 28 JL. H.R RASUNA SAID BLOK X-5 KAV 1-2,-,-,0,0,SETIABUDI,KUNINGAN TIMUR,JAKARTA TIMUR,DKI JAKARTA RAYA,12950,
LT,10020717057000,PT. CARGILL INDONESIA,"WISMA 46 KOTA BNI LT.28, JL. JEND. SUDIRMAN KAV.01 ",-,-,0,0,TANAH ABANG,-,JAKARTA PUSAT,DKI JAKARTA RAYA,10220,
LT,717131536505000,PT. MOVAS ABADI SENTOSA,SOKA ,-,14A,7,7,SIDOREJO,SIDOREJO LOR,SALATIGA,JAWA TENGAH,0,
LT,29694221609000,WIKA - PP JOINT OPERATION,JL. A YANI ,-,176 - 178,0,0,GAYUNGAN,GAYUNGAN,SURABAYA,JAWA TIMUR,60235,
LT,14844849801000,PT. MAHKOTA MOTORINDO DIESEL,JL. DR. W.S. HUSODO NO. 51 P,-,-,0,0,WAJO,PATTUNUANG,MAKASSAR,SULAWESI SELATAN,90174,
LT,18694190055000,PT. PACKINDO UTAMA MAKMUR,JL. HASAN MUNADI NO.40 DUSUN DERMO,-,-,0,0,BEJI ,GUNUNGGANGSIR,PASURUAN,JAWA TIMUR,67154,
LT,24806374651000,PT. NURWY STEEL ENGINEERING ,"RAYA SURABAYA MALANG KM.66,7 ",-,-,0,0,PURWODADI ,PURWODADI,PASURUAN,JAWA TIMUR,0,
LT,28003473641000,PT. QL HASIL LAUT ,SEDAYULAWAS,-,-,0,0,BRONDONG,SEDAYULAWAS,LAMONGAN,JAWA TIMUR,62263,0322-662828 (IDA)
LT,30019418618000,PT. ENERGI BAHARU LESTARI,KIG RAYA UTARA KAVLING N  NO.5 KAWASAN INDUSTRI GRESIK,-,-,0,0,MANYAR,ROOMO,GRESIK,JAWA TIMUR ,0,
LT,32381592615000,PT. HASIL PRIMA INTERSARANA,JL. MEDOKAN AYU MA II S ,-,5,1,7,RUNGKUT,MEDOKAN AYU,SURABAYA,JAWA TIMUR,60295,
LT,15463656609000,PT. GOLDEN PRATAMA GEMILANG,RUKO JEMUR RAYA D-22 JL. JEMURSARI 203,D,22,0,0,WONOCOLO,SIDOSERMO,SURABAYA,JAWA TIMUR,60239,
LT,12186680721000,CV. AGAM JAYA,JL. SIAGA DALAM,-,10A,17,0,BALIKPAPAN KOTA,DAMAI,BALIKPAPAN,KALIMANTAN TIMUR,0,
LT,27145283612000,PT. PETRO JORDAN ABADI,JL. RAYA ROOMO,-,-,0,0,MANYAR,ROOMO,GRESIK,JAWA TIMUR,61151,031-3991887 Ext 1616
LT,312689185616000,CV. YUDHA PRATAMA,JL. TAMBAK ADI,-,92,0,0,SIMOKERTO,-,SURABAYA,JAWA TIMUR,0,031-3761537
LT,20674289615000,CV. ISOTECH MANDIRI,MEDOKAN AYU MA III,N,31,3,8,RUNGKUT,MEDOKAN AYU,SURABAYA,JAWA TIMUR,60295,031-8556640
LT,60593886623000,HARTAWAN HENDRATANTULAR,JL. MAHAKAM,-,14A,0,0,KLOJEN,RAMPAL CELAKET,MALANG,JAWA TIMUR,0,0341-458227
LT,23913668643000,PT. ANUGRAH PRIMA INTI KARYA,JL. MUNCUL KAV. AB-11,-,-,0,0,GEDANGAN,-,SIDOARJO,JAWA TIMUR,61254,
LT,30881510603000,PT. NOBELINDO,INDUSTRI ,-,12,5,5,TAMAN,TROSOBO,SIDOARJO,JAWA TIMUR,0,
LT,10691822055000,PT. JAVA PACIFIC,JL. RAYA SURABAYA KRIAN KM 24 - 25,-,-,0,0,KRIAN,KEBOHARAN,SIDOARJO,JAWA TIMUR,61262,
LT,13715958605002,PT. SRIKAYA MAS,MERAK,-,8,0,0,KREMBANGAN,KREMBANGAN SELATAN,SURABAYA,JAWA TIMUR,60175,
LT,10615466052000,PT. LAMIPAK PRIMULA INDONESIA,JL. SAWUNGGALING ,-,26,9,3,TAMAN,GILANG,SIDOARJO,JAWA TIMUR,0,
LT,32238289643000,CV. SUMBER ANUGRAH TEKNIK,TAMASA INDAH REGENCY,C,1,5,3,WARU,TROPODO,SIDOARJO,JAWA TIMUR,61256,
LT,14629059904000,PT. BALI OCEAN MAGIC,JL. KARTIKA PLAZA P.O. BOX 1055,-,-,0,0,KUTA ,TUBAN,BADUNG,BALI,80361,
LT,18345942809000,PT. GUNUNG MARMER JAYA,JL. POROS RAYA ,-,-,0,0,BUNGORO,TABO - TABO,PANGKAJENE,SULAWESI SELATAN,90651,
LT,11407558631000,PT. BERNOFARM,JL. RAYA DARMO,-,143,0,0,WONOKROMO,DARMO,SURABAYA,JAWA TIMUR,0,
LT,14411409641000,PT. SRIKAYA PUTRA MAS,JL. BY PASS KRIAN KM 28.6,-,-,0,0,KRIAN,SIDOMOJO,SIDOARJO,JAWA TIMUR,0,
LT,31778830606000,PT. MEGA NUSANTARA KONSTRUKSI,NGAGEL WASANA 1/124,-,-,0,0,GUBENG,BARATAJAYA,SURABAYA,JAWA TIMUR,0,
LT,23019219646000,CV. BERDIKARI,JL. RAYA GORANG GARENG ,-,-,4,2,TAKERAN,MADIGONDO,MAGETAN,JAWA TIMUR,63383,
LT,31257140609000,CV. RIZKY UTAMA,TALES 1/114,-,-,4,1,WONOKROMO,JAGIR,SURABAYA,JAWA TIMUR,0,
LT,316136696604000,CV. CIPTA MANDIRI TEKNIK,KOMP. PERGUDANGAN BUMI MASPION UTARA,-,2,0,0,BENOWO,ROMOKALISARI,SURABAYA,JAWA TIMUR,0,031-77334427
LT,28810539036000,PT. MAJU ELECTRIC GIRINDO,TMN DUTA MAS ,D8,25,11,9,GROGOL PETAMBURAN,WIJAYA KUSUMA,JAKARTA BARAT,DKI JAKARTA RAYA,11460,021-5676426 / 5646460
LT,20267670052000,PT. ROMAN CERAMIC INTERNATIONAL ,"LYMAN WING KOTA BNI, JALAN JENDERAL SUDIRMAN KAV.1",-,-,0,0,TANAH ABANG,-,JAKARTA PUSAT,DKI JAKARTA RAYA,10220,
LT,14797534631000,PT. WONOKOYO JAYA CORPORINDO ,JL. TAMAN BUNGKUL ,-,7-Jan,0,0,WONOKROMO,DARMO,SURABAYA,JAWA TIMUR,0,
LT,10620144062000,PT. MULTI FABRINDO GEMILANG,JL. AMPERA RAYA,-,20,8,2,PASAR MINGGU,CILANDAK TIMUR,JAKARTA SELATAN,DKI JAKARTA RAYA,12560,021-7800824
LT,21024401641000,PT. INTERKRAFT,JL. RAYA DESA WEDI,-,-,0,0,GEDANGAN,WEDI,SIDOARJO,JAWA TIMUR,0,031-8910434-36
LT,14973069641000,PT. INTEGRA INDOCABINET,DESA BETRO,-,-,13,7,SEDATI,BETRO,SIDOARJO,JAWA TIMUR,61253,031-8910434
LT,17088659429000,PT. BELKA CERIA PERSADA,KOMPL. MARGAHAYU RAYA L.179,-,-,5,16,-,RANCASARI,BANDUNG,JAWA BARAT,0,7502792
LT,14657787904000,PT. SAMUDERA MAHKOTA BEACH,JL. PRATAMA ,-,72,0,0,KUTA SELATAN,BENOA,BADUNG,BALI,80361,
LT,31786148307000,CV. SINAR KARYA,JL. NUSA EKA,-,24,32,10,SEBERANG ULU II,16 ULU,PALEMBANG,SUMATERA SELATAN,30265,0812-79859089
LT,11329281054000,PT. KEDAWUNG SETIA INDUSTRIAL Tbk.,JL. MASTRIP ,-,862,0,0,KARANG PILANG,-,SURABAYA,JAWA TIMUR,60221,
LT,24430001609000,CV. INDOTECH PERKASA,KRUKAH SELATAN,-,51,0,0,WONOKROMO,NGAGEL REJO,SURABAYA,JAWA TIMUR,60245,031-5991236
LT,30880702603000,CV. BAJA RAYA,TAMAN PONDOK JATI CF - 10,-,-,27,10,TAMAN,-,SIDOARJO,JAWA TIMUR,0,
LT,313358665614000,PT. SAMUDRA ARUNG NUSANTARA,PENGHELA ,-,96,0,0,BUBUTAN,BUBUTAN,SURABAYA,JAWA TIMUR,60174,
LT,26730341402000,PT. TERATAI MEKATRONIK MANDIRI ,PUSAT NIAGA CIBODAS,C,30,0,0,CIBODAS ,-,TANGGERANG,BANTEN,15138,
LT,10011054092000,PT. TRIAS SENTOSA Tbk.,JL. RAYA WARU,-,1B,0,0,-,-,SIDOARJO,JAWA TIMUR,0,
LT,20921680605000,PT. MANDIRI UTAMA TEHNIK  ,JL. JEPARA,-,5,3,1,KREMBANGAN,KEMAYORAN,SURABAYA,JAWA TIMUR,60178,
LT,10830321631000,PT. SEKAR KATOKICHI,JL. RAYA DARMO ,-,23-25,0,0,TEGALSARI,KEPUTRAN,SURABAYA,JAWA TIMUR,0,031-8963611
LT,28439487652000,PT. MATRIX POLYMER INDONESIA,JL. SIMPANG PANJI SUROSO,-,1,0,0,BLIMBING,ARJOSARI,MALANG,JAWA TIMUR,65126,
LT,26703736619000,CV. ARTHA AGUNG,JL.BHASKARA SARI,-,92,10,2,MULYOREJO,KALISARI,SURABAYA,JAWA TIMUR,60112,
LT,21829742612001,PT. INDONESIA MARINA SHIPYARD,JL. AMAK KHASIM III,-,-,0,0,GRESIK,SIDORUKUN,GRESIK,JAWA TIMUR,61112,
LT,30086557617000,CV. MATABIRU ENGINEERING ,P. ISTANA MENTARI REGENCY,C3,28,11,5,SIDOARJO,CEMENGKALANG,SIDOARJO,JAWA TIMUR,0,031-8075579
LT,13658026059000,"JEBSEN & JESSEN TECHNOLOGY INDONESIA, PT",GEDUNG GRAHA INTI FAUZI LT.7 - Jl Buncit Raya ,-,22,0,0,-,Pejaten Barat,Jakarta Selatan,-,0,
LT,31778608606000,"BESA SEKAR GUNA, PT",Dharmahusada ,C&F,160,0,0,-,-,Surabaya,Jawa Timur,0,
LT,23972342651000,PT. GALAXY SURYA PANELINDO ( GASULINDO ),DUSUN KEBONAN,-,-,0,0,PASIRIAN,CONDRO,LUMAJANG,JAWA TIMUR,0,085334493788 / 085707070072
LT,24266793415000,PT. CS2 POLA SEHAT ,JL. PANJANG JIWO ,-,48 - 50,0,0,TENGGILIS MEJOYO,PANJANG JIWO ,SURABAYA,JAWA TIMUR ,60299,
LT,700328073043000,PT. ANEKA JARINGAN INDONESIA,JL. BOULEVARD BARAT I KOMPLEK INKOPAL,G,67,0,0,KELAPA GADING,KELAPA GADING BARAT,JAKARTA UTARA,DKI JAKARTA RAYA,0,
LT,318071271621000,PT. CITRA INDOBETON ABADI,JL. RAYA MADIUN SURABAYA,-,-,0,0,BALEREJO,GARON,MADIUN,JAWA TIMUR,0,
LT,11091014631000,PT. WONOSARI JAYA,JL. KERTOPATEN 21/I,-,-,0,0,SIMOKERTO,SIDODADI,SURABAYA,JAWA TIMUR,60145,
LT,22089403618000,PT. SUMATRACO LANGGENG MAKMUR,PERUM GRAHA FAMILI ,M,62,0,0,DUKUH PAKIS,PRADAH KALIKENDAL,SURABAYA,JAWA TIMUR,0,
LT,31338684012000,"BUT. SAMSUNG ENGINEERING CO., LTD",PLAZA BAPINDO - MERANA MANDIRI LT.16 JL. JEND SUDIRMAN KAV 54 - 55,-,-,0,0,KEBAYORAN BARU,-,JAKARTA SELATAN,DKI JAKARTA RAYA,12190,
LT,22080378615000,PT. INDO VEGETABLE OIL INDUSTRI,RUNGKUT INDUSTRI,IV,34,0,0,GUNUNG ANYAR,RUNGKUT TENGAH,SURABAYA,JAWA TIMUR,0,
LT,13008222038000,PT. ULTRA PRIMA ABADI,JL. DAAN MOGOT KM.16,-,-,0,0,KALIDERES,SEMANAN,JAKARTA BARAT,DKI JAKARTA RAYA,0,
LT,661215087603000,CV. SURYA SEMBADA,BEBEKAN PERENG ,-,2,11,4,TAMAN,BEBEKAN ,SIDOARJO,JAWA TIMUR,0,
LT,10018513073000,PT. WIHARTA KARYA AGUNG,JL. P. JAYAKARTA,-,46AA,0,0,SAWAH BESAR,MANGGA DUA SELATAN,JAKARTA PUSAT,DKI JAKARTA,10730,021-6281039
LT,317513471416000,PT. MATAHARI SINAR INTI,TAMAN ROYAL 3,A.1,16,1,7,CIPONDOH,PORIS PLAWAD UTARA,TANGERANG,BANTEN,0,
LT,11433638605000,PT. WELCO,JL. KREMBANGAN BARAT,-,3,0,0,KREMBANGAN SELATAN,-,SURABAYA,JAWA TIMUR,60175,
LT,713234078643000,CV. ABADI TEHNIK PERKASA,DS PRANTI AP,-,3.B,1,1,SEDATI,PRANTI,SIDOARJO,JAWA TIMUR,0,031-8687131
LT,85387991603000,SYAIFUDDIN ZUHRI / UD. SURYA SEMBADA TEHNIK  ,BEBEKAN,-,7,11,4,TAMAN,BEBEKAN,SIDOARJO,JAWA TIMUR,0,
LT,317494870034000,PT. PANDA TEKNIK,KOMPLEK CITY RESORT RESIDENCES ( MALIBU ),J,32,0,0,CENGKARENG,CENGKARENG TIMUR ,JAKARTA BARAT,DKI JAKARTA RAYA,0,089658811516 (LEA)
LT,14408694641000,PT. TJAKRINDO MAS,JL. RAYA KEPATIHAN,-,168A,0,0,MENGANTI,KEPATIHAN ,GRESIK,JAWA TIMUR,0,0822 3117 8590
LT,23847122651000,PT. KARUNIA REJEKI ABADI (KAREA),DESA WONOKOYO ,-,-,0,0,BEJI,WONOKOYO,PASURUAN,JAWA TIMUR,67154,(031) 5680828
LT,25263047445000,CV. LINGGA JASA,JL. RAYA DAYEUHKOLOT BOJONGSOANG,-,6,0,0,DAYEUHKOLOT,CITEUREUP,BANDUNG,JAWA BARAT,0,
LT,709457147617000,PT. DELTA SILINDER PRIMA,KOMPLEK INDUSTRI & PERGUDANGAN SAFE N LOCK JL. LINGKAR TIMUR ,I,1599,0,0,SIDOARJO,RANGKAHKIDUL,SIDOARJO,JAWA TIMUR,0,VENY ( 031-99031196 )
LT,11080272616000,CV. SURYA AGUNG TEHNIK,JL. BULAKSARI,-,9-Jul,0,0,WONOKUSUMO,-,SURABAYA,JAWA TIMUR,0,
LT,12337556641000,PT. UNICHEMCANDI INDONESIA ,JL. RAYA CANDI,-,5,0,0,CANDI,GELAM,SIDOARJO,JAWA TIMUR,0,
LT,312874811602000,PT. SUN PAPER SOURCE,DESA SUKOANYAR,-,-,0,0,NGORO,SUKOANYAR,KABUPATEN,JAWA TIMUR,0,
LT,19068907111000,CV. INTRATEK,JL. KEPRIBADIAN NO.2,-,-,0,0,0,-,MEDAN,SUMATERA UTARA,20111,
LT,12333100641000,PT. SURYA ALAM TUNGGAL ,JL. RAYA TROPODO ,-,126,0,0,WARU,TROPODO,SIDOARJO,JAWA TIMUR,0,
LT,20265906052000,PT. KNAUF GYPSUM INDONESIA,"CILANDAK COMMERCIAL ESTATE, GARDEN CENTRE LT.5 SUITE 16 (B), JL. CILANDAK KKO",-,-,1,5,PASAR MINGGU,CILANDAK TIMUR,JAKARTA SELATAN,DKI JAKARTA RAYA ,12560,
LT,17821794641000,PT. NUSA PALAPA GEMILANG,JL. RAYA SURABAYA  MOJOKERTO KM.39,-,-,1,1,BALONGBENDO,BAKUNGTEMENGGUNGAN,SIDOARJO,JAWA TIMUR,0,
LT,21136262614000,CV. RAMA TEKNIK,JL. KRANGGAN 6/64,-,-,1,1,BUBUTAN,BUBUTAN,SURABAYA,JAWA TIMUR,0,
LT,660130741655000,CV. NITI JAYA MAKMUR,JL. RAYA KEDIRI NGANJUK KM.16,-,-,3,3,TAROKAN,KEDUNGSARI,KEDIRI,JAWA TIMUR,0,
LT,22158604732000,PT. PANCA TEKNIK,"JL. A YANI KM. 12,7",-,-,3,5,GAMBUT,GAMBUT,BANJAR,KALIMANTAN SELATAN,70652,
LT,12325783631000,PT. SURYA TIMUR SAKTI JATIM,JL. BASUKI RACHMAD,-,45 - 47,0,0,GENTENG,EMBONG KALIASIN,SURABAYA,JAWA TIMUR,0,
LT,27810548531000,CV. SUMBER ARTHA,BALEDONO NGENTAK,-,-,1,5,-,-,PURWOREJO,JAWA TENGAH,54111,
LT,10005833641000,PT. HANIL JAYA STEEL ,JL. BRIGJEN KATAMSO JANTI ,-,-,0,0,WARU,-,SIDOARJO,JAWA TIMUR,0,031 - 8533500
LT,24768087615000,CV. MULTI MESINDO JAYA,WISMA MEDOKAN YKP WM/H-9,-,-,5,8,RUNGKUT,MEDOKAN AYU,SURABAYA,JAWA TIMUR,0,031 70584488
LT,15556301428000,PT. BUMI ARTHA REKAPERDANA,JL. GEGERKALONG HILIR,-,121,0,0,SUKASARI,SUKARASA,BANDUNG,JAWA BARAT,0,08127536090 (AGUS)
LT,27101484617000,CV. INDO - DRIVES SOLUTION,PURI INDAH ,W,6,28,8,SIDOARJO,SUKO,SIDOARJO,JAWA TIMUR,0,
LT,21701321618000,PT. MERAK JAYA BETON ,RAYA MASTRIP,-,5,0,0,KARANG PILANG,KEBRAON,SURABAYA,JAWA TIMUR,0,
LT,23919624641000,PT. MAKMUR ANUGERAH SEJAHTERA,KOMP. INDUSTRI & PERGUDANGAN MEIKO ABADI KAV. B/62,-,-,0,0,GEDANGAN,WEDI,SIDOARJO,JAWA TIMUR,0,
LT,10714921055000,PT. YUAN TEAI (INDONESIA) CO. LTD,KAWASAN INDUSTRI PERSADA ,L - 5,0,0,0,________________,NGORO,MOJOKERTO,JAWA TIMUR,0,
LT,317427557617000,PT. MULTIUSAHA BAROKA,SAFE N LOCK ,T,1906,0,0,SIDOARJO,RANGKAHKIDUL,SIDOARJO,JAWA TIMUR,0,
LT,10006435057000,PT. ESSENTRA,JL. BERBEK INDUSTRI I NO. 16 - 20 BERBEK WARU SIDOARJO,-,-,0,0,-,-,-,JAWA TIMUR,61256,031 - 8432017
LT,23102544115000,PT. PRIMA PALM LATEX INDUSTRI,DUSUN VII,-,-,0,0,BANDAR PASIR MANDOGE,HUTA PADANG,ASAHAN,SUMATERA UTARA,21262,
LT,14802953641000,PT. SUMBER MAKMUR SEJATI SEJAHTERA,JL. SEMERU ,-,66,7,2,DRIYOREJO,BAMBE,GRESIK,JAWA TIMUR,61177,031-7344441
LT,33318858643000,CV. KARUNIA MAKMUR,JL. SEMANGKA ,X,569,4,9,WARU ,PERUM PONDOK TJANDRA INDAH TAMBAKREJO,SIDOARJO,JAWA TIMUR,61256,
LT,11332137631000,PT. VITAPHARM,JL. PANJANG JIWO  ,-,42,0,0,TENGGILIS MEJOYO,PANJANG JIWO,SURABAYA,JAWA TIMUR,0,
LT,14977854604000,CV. MULTI MAS,JL. KUPANG INDAH II,-,32,2,5,SUKOMANUNGGAL ,SONOKWIJENAN,SURABAYA,JAWA TIMUR,60189,031-5458589 / 5473774
LT,313348021612000,PT. ORELA SHIPYARD,JL. RAYA NGEMBOH ,-,-,2,1,UJUNG PANGKAH,NGEMBOH,GRESIK,JAWA TIMUR,0,
LT,23975501641000,CV. FERTILINDO AGROLESTARI,RAYA MOJOSARI TRAWAS ,-,-,0,0,PUNGGING,MOJOREJO,MOJOKERTO,JAWA TIMUR,0,0321 - 6850160
LT,730070976643000,WATER DEPO INDONESIA,JL. RAYA SEDATI KOMPLEKS INDUSTRI DAN PERGUDANGAN TRITAN ,A,2,0,0,GEDANGAN,WEDI,SIDOARJO,JAWA TIMURR,0,
LT,33228198071000,PT. TIRTA SUKSES PERKASA,THE CITY TOWER LT.15 JL. MH. THAMRIN,-,81,0,0,MENTENG,MENTENG,JAKARTA PUSAT,DKI JAKARTA RAYA,10310,
LT,740730023603000,PT. MULTI BONDING INDONESIA,JALAN RAYA SIDOREJO ,-,10 B,10,5,KRIAN,SIDOREJO ,SIDOARJO,JAWA TIMUR,0,
LT,710200312643000,PT. NILAM RAYA INDONESIA,PSJ SIDNEY GARDEN ,L-15,16,3,7,GEDANGAN,PUNGGUL,SIDOARJO,JAWA TIMUR,0,
LT,24340200651000,PT. ABNA SAMANHUDISAUTIKA HUSADA,JL. P SUDIRMAN,-,-,0,0,KEPANJEN,DILEM,MALANG,JAWA TIMUR,0,
LT,735462525609000,CV. TRI JAYA ABADI,JL. BRATANG GEDE 6 - I,-,9,6,12,WONOKROMO,NGAGELREJO ,SURABAYA,JAWA TIMUR,0,081-27536090
LT,29694064609000,PT. MULTI TEKNIK MANUNGGAL ,JL. PAGESANGAN BARU I KAV. 1-2,-,-,6,1,JAMBANGAN,PAGESANGAN,SURABAYA,JAWA TIMUR,0,
LT,701355711643000,PT. JAYA ERA TAMA,PERGUDANGAN TANRISE SOUTHGATE,A,29,4,3,GEDANGAN,SRUNI,SIDOARJO,JAWA TIMUR,0,
LT,21696646617000,CV. TRIAS PERSADA ENGINEERING,DS. SUGIHWARAS,-,-,6,2,CANDI,SUGIHWARAS,SIDOARJO,JAWA TIMUR,0,031-8957479
LT,703585844609000,CV. QBI TEKNIK,JL. KARANGAN VI,-,96-I,0,0,WONOKROMO,SAWUNGGALING,SURABAYA,JAWA TIMUR,0,811373998
LT,12186821721000,CV. BUMI INDAH,KOMP. BPP BARU ,B-3,19,0,0,BALIKPAPAN SELATAN,DAMAI,BALIKPAPAN,KALIMANTAN TIMUR,76114,
LT,316954643611000,PT. GLOBAL TEKNOENERGI INDONESIA,JAGALAN ,-,115-A,0,0,GENTENG,-,SURABAYA,JAWA TIMUR,0,
LT,13937685075000,PT. BUMI CERAH AGUNG,RUKO KARANG 55,C,26,0,0,_________________,KARANG ANYAR,JAKARTA PUSAT,JAWA BARAT,0,
LT,28690584026000,PT. HASTA JAYA MARINA,Jl. P. JAYAKARTA  ,D-6,141,0,0,_______________,MANGGA DUA SELATAN,JAKARTA PUSAT,JAWA BARAT,0,
LT,12140836610000,PT. ADI SURYA SEMPURNA,JL. MAYJEN SUNGKONO ,_____,147,0,0,________________,DUKUH PAKIS ,SURABAYA,JAWA TIMUR,0,
LT,12140836631000,PT. ADI SURYA SEMPURNA,JL. MAYJEN SUNGKONO ,_____,147,0,0,________________,DUKUH PAKIS,SURABAYA,JAWA TIMUR,0,
LT,16411936026000,PT.SARANASENTOSA KARYAPRIMA ,JL MANGGA DUA RAYA ,P,26,0,0,___________________,MANGGA DUA SELATAN,SURABAYA,JAWA TIMUR,0,
LT,15961253441000,PT. INDOLAKTO,JL. RAYA SILIWANGI PASAWAHAN,-,-,0,0,CICURUG,PASAWAHAN,SUKABUMI,JAWA BARAT,0,
LT,22077135631000,PT. DEMPO LASER METALINDO,RUNGKUT INDUSTRI I/29,-,-,0,0,RUNGKUT,KALIRUNGKUT,SURABAYA,JAWA TIMUR,0,031-8437363
LT,14905863641000,PT. TRISULA PACK INDAH,DESA SRUNI NO. 48 - 50,-,-,0,0,GEDANGAN,PUNGGUL,SIDOARJO,JAWA TIMUR,61254,
LT,22976567641000,PT. VICCON MODERN INDUSTRY,DUSUN TEMPURAN PUNGGING,-,-,0,0,PUNGGING,TEMPURAN,MOJOKERTO,JAWA TIMUR,0,
LT,723837209721000,PT. MASON DWI MITRA,JL. RE MARTADINATA,-,59,21,0,-,MEKAR SARI,BALIKPAPAN TENGAH,KALIMANTAN TIMUR,0,
LT,23798721031000,PT. CIPTA AGUNG MANIS,JL. BRIGJEN KATAMSO,-,10,0,0,PALMERAH,KOTA BAMBU SELATAN,JAKARTA BARAT,DKI JAKARTA RAYA,11420,031-5031070
LT,14399018641000,PT. BEHAESTEX,JL. MAYJEN SUNGKONO ,-,14,0,0,KEBOMAS,SEGOROMADU,GRESIK,JAWA TIMUR,0,
LT,22556294641000,PT. BUMI LAMONGAN SEJATI,DS. PACIRAN,-,-,0,0,PACIRAN,-,LAMONGAN,JAWA TIMUR,0,
LT,314113663616000,PT. SUPERIOR PRIMA SUKSES,KAPASARI,-,100,6,8,SIMOKERTO,KAPASAN,SURABAYA,JAWA TIMUR,0,
LT,316658509721000,CV. BANYOEDJAJA,JL. D.I PANJAITAN GANG SEDERHANA,-,26,32,0,BALIKPAPAN TENGAH,GUNUNG SARI ULU ,BALIKPAPAN,KALIMANTAN TIMUR,0,
LT,10611549093000,"PT.WIJAYA KARYA BETON, Tbk",JL. RAYA JATIWARINGIN,-,54,1,4,PONDOKGEDE,JATI CEMPAKA,BEKASI ,JAWA BARAT,0,
LT,30883979603000,CV. LAMBANG MITRA ABADI,PERUM. PESONA ALAM REGENCY,A,20,0,0,WONOAYU,SIMOKETAWANG,SIDOARJO,JAWA TIMUR,61261,85100850592
LT,10600039093000,PT. BRANTAS ABIPRAYA (PERSERO),JL. PANJAITAN KAV.14,-,-,0,0,JATINEGARA,CIPINANG CEMPEDAK,JAKARTA TIMUR,DKI JAKARTA RAYA,13340,082-244462660
LT,31674310721000,CV. BERKAT UTAMA TEKNIK,JL. SOEKARNO HATTA KM. 7 (RUKO SAMPING IBNU SINA),-,1 - C,45,0,BALIKPAPAN UTARA,GRAHA INDAH,BALIKPAPAN,KALIMANTAN TIMUR,76129,
LT,42189654914000,BP. KURNALIUS,JL. SEKARDIU 4 KR. SIDEMEN,-,-,0,0,CAKRANEGARA,CAKRANEGARA BARAT,MATARAM,NUSA TENGGARA BARAT,83239,
LT,12341517651000,PT. SURYA ZIG ZAG,JL. SEMAMPIR II/1,-,-,0,0,KEDIRI KOTA,SEMAMPIR,KEDIRI,JAWA TIMUR,64121,0354-684661
LT,312003221625000,PT. TRIPUTRA PERKASA SEJATI,"JL. RAYA TONGAS, DSN. RANDU",-,-,0,0,TONGAS,BAYEMAN,PROBOLINGGO,JAWA TIMUR,67252,031-5939311/12
LT,315801076614000,PT. PELAYARAN GROGOL SARANA UTAMA,JL. MARGOMULYO,E.7 - E.8,44,1,1,ASEMROWO,GREGES,SURABAYA,JAWA TIMUR,0,031-7499300
LT,11010204123000,PT. ASIA SAKTI WAHID FOODS MANUFACTURE,JL. PERTAHANAN I,-,7,0,0,MEDAN AMPLAS,TIMBANG DELI,MEDAN,SUMATERA UTARA,20148,061-7861008
LT,15443997631000,PT. BUKITDALAM BARISANI,JL. MEDOKAN ASRI UTARA XIII/44,-,-,0,0,RUNGKUT,MEDOKAN AYU,SURABAYA,JAWA TIMUR,0,
LT,316690080611000,PT. KUMALA KIRANA INDUSTRI,PANGLIMA SUDIRMAN ,-,23 - 25,2,7,GENTENG,EMBONG KALIASIN,SURABAYA,JAWA TIMUR,0,031-5671877 (YULIANA)
LT,11068418511000,PT. CIPTA TEHNIK ABADI,JL. DR. CIPTO ,-,16,0,0,SEMARANG TIMUR,BUGANGAN,SEMARANG,JAWA TENGAH,50126,
LT,14555692441000,PT. DELIMA AGUNG UTAMA,JL. SURYALAYA XII,-,6,0,0,LENGKONG,CIJAGRA,BANDUNG,JAWA BARAT,40265,031-8792658 / 8782561
LT,10602688054000,PT. DHARMA SATYA NUSANTARA Tbk,"JL. RAWA GELAM V KAV. OR / 3B, GD. SAPTA MULIA LT.3",-,-,0,0,-,-,KAWASAN INDUSTRI PULOGADUNG,JAKARTA,13930,0293 - 4901227
LT,29385846603000,CV. TRINICAL ADIGUNA CIPTA,GRIYA SAMUDRA ASRI,A2,9,2,8,TAMAN,KRAMAT JEGU,SIDOARJO,JAWA TIMUR,0,85100274552
LT,316067446643000,PT. AERO ANUGERAH ELEKTRIK,"RUKO TIRTA SQUARE, JL. TIRTA RAYA",-,3A,1,14,WARU,KUREKSARI,SIDOARJO,JAWA TIMUR,61256,031-8554937
LT,22390108046000,PT.BENTENG MAS PERKASA,AGUNG PERKASA 9,K2,31,0,0,_____________,_____________,JAKARTA UTARA,________________,0,
LT,700979685643000,PT.JAVA SURYA TEKNIK,Jl. RAYA BERBEK ,________,16,2,2,___________________,BREBEK,SIDOARJO,JAWA TIMUR,0,
LT,311749154613000,CV. SURYA INDAH PERKASA,KEMBANG JEPUN,-,59 - 61,0,0,PABEAN CANTIKAN,BONGKARAN,SURABAYA,JAWA TIMUR,60161,031-3538489
LT,16404592617000,PT. BINA OBOR ENGININDO NUSANTARA,JL. RAYA PANGLIMA SUDIRMAN,-,1,0,0,SIDOARJO,LEBO,SIDOARJO,JAWA TIMUR,0,031-8964107 - 8 / 8961472
LT,210655932618000,CV. ABADI MAKMUR BERKAT ANUGERAH,BABATAN PILANG,F.1,14/7,4,5,WIYUNG,BABATAN,SURABAYA,JAWA TIMUR,0,
LT,15327729609000,PT. DUA PERKASA,JL. BENDUL MERISI PERMAI,F,14,0,0,WONOCOLO,BENDUL MERISI,SURABAYA,JAWA TIMUR,60239,031-8414293
LT,14815963641000,PT. LANGGENGKARYA MAKMURLESTARI,JL. SEMERU,-,124,0,0,DRIYOREJO,BAMBE,GRESIK,JAWA TIMUR,0,031-7664205
LT,315689745607000,PT. SURYA BARU ANEKA BANGUNAN,JL. PANDEGILING,-,344,8,9,TEGALSARI,-,SURABAYA,JAWA TIMUR,0,
LT,31556186643000,PT. KADEBERG,GADING KIRANA ESTATE ,J,9,34,1,BUDURAN,SIDOKEPUNG,SIDOARJO,JAWA TIMUR,61252,031-8067411
LT,22570931607000,CV. UTAMA JAYA TEKNIK,JL. UNTUNG SUROPATI ,-,92,0,0,TEGALSARI,DR. SUTOMO,SURABAYA,JAWA TIMUR,60264,-
LT,26606582807000,PT. ADIMITRA PINUS UTAMA,"HOME BASE ARMED, BONTO MARANNU - GOWA",-,-,0,0,-,-,-,SULAWESI SELATAN,92174,
LT,31903370027000,PT. MEKANIKAL PERKASA RAHARJA,"RUKO MEGA GROSIR CEMPAKA MAS BLOK I NO.15, JL. LETJEN SUPRAPTO - SUMUR BATU",-,-,0,0,-,-,-,JAKARTA PUSAT,10640,021-4288 8148
LT,242637338643000,HENDRI ISWANTO,SEDATIAGUNG,-,23,1,2,SEDATI,SEDATIAGUNG,SIDOARJO,JAWA TIMUR,61253,031-86692231 / 0812 3128 2045
LT,14802177641000,PT. INDAL STEEL PIPE,KAWASAN INDUSTRI MASPION SUKOMULYO - MANYAR,-,-,0,0,-,-,GRESIK,JAWA TIMUR,0,
LT,19070416092000,PT. SENTANA ADIDAYA PRATAMA,"GEDUNG B & G TOWER LANTAI 9, JL. PUTRI HIJAU NO. 10",-,-,0,0,MEDAN BARAT,KESAWAN,MEDAN,SUMATERA UTARA,20111,031-28932164
LT,15394299415000,PT. ALCORINDO SEJAHTERA,"KAWASAN INDUSTRI MILLENNIUM, JL. MILLENNIUM RAYA",F2,2,6,2,PANONGAN,PEUSAR,TANGERANG,BANTEN,15710,021-29006971
LT,31203151605000,CV. VARIA SEMBADA MANDIRI,JL. SEDAYU 2 / 34 KREMBANGAN,-,-,0,0,-,-,SURABAYA,JAWA TIMUR,60178,
LT,314076795618000,PT. ANEKA CIPTA STEELINDO,PRIMA KEBRAON 8 / 12,-,-,4,8,KARANG PILANG,KEBRAON,SURABAYA,JAWA TIMUR,0,
LT,30168751034000,PT. HADASA DINAMIKA,RUKO MUTIARA TAMAN PALEM,C,50,6,14,CENGKARENG,CENGKARENG TIMUR,JAKARTA BARAT,DKI JAKARTA RAYA,11730,021-54358148 - 49
LT,24443426113000,PT.KHARISMA PERMATA NUSANTARA,"JL. AMAL D-9, P. BRAYAN DARAT I, ",-,-,0,0,MEDAN TIMUR,-,MEDAN ,SUMATERA UTARA,0,061-6645635
LT,13745120073000,PT. SINAR MAS TELADAN,"JL. MH. THAMRIN NO.51, GONDANGDIA MENTENG",-,-,0,0,-,-,JAKARTA PUSAT,DKI JAKARTA,10350,
LT,11224789641000,PT. GRESIK CIPTA SEJAHTERA,"JL. JEND. A. YANI , NGIPIK",-,-,0,0,GRESIK,-,GRESIK,JAWA TIMUR,0,031-3985543 EXT. 108/105
LT,313074353513000,PT. TIGA SINAR GEMILANG,"JOHAR RT. 017 , RW. 007  PEGULON, KENDAL",-,-,0,0,-,-,-,-,0,
LT,22078869615000,PT. DELTA MANDIRI PRIMA,RAYA KALIRUNGKUT 27 RUKO RUNGKUT MAKMUR ,C,66,0,0,RUNGKUT,KALIRUNGKUT,SURABAYA,JAWA TIMUR,60293,031-8793058
LT,263982449643001,STEVANUS EVAN TRI SETIAWAN,GRAHA ANGREK MAS ,A,22,50,12,BUDURAN,PAGERWOJO,SIDOARJO ,JAWA TIMUR,61252,
LT,26701474619000,CV. PROFIL 88,KEDINDING TENGAH JAYA 2/39 - 43  TANAH KALIKEDINDING,-,-,0,0,KENJERAN,-,SURABAYA,JAWA TIMUR,0,
LT,32944886125000,PT. MEGA BANGUN ASIA,KOMP. JADE CITY SQUARE JL. YOS SUDARSO LK. VI BLOK C NO. 28-J    TITI PAPAN   MEDAN DELI,-,-,0,0,-,-,MEDAN,SUMATERA UTARA,0,
LT,443492350517000,UD SUMBER MULYA,TPA BLOK P/4,-,-,0,0,TEMBALANG,KRAMAS,SEMARANG,JAWA TENGAH,0,081 327 392 646
LT,14384002641000,PT. PETROCENTRAL,JL. RAYA ROOMO PO.BOX 53,-,-,0,0,MANYAR,MANYAR,GRESIK,JAWA TIMUR,0,
LT,19759182631000,PT. PEMUDA PRIMA USAHA,JL. RAYA NGAGEL 179-183 ( RK/23A ),-,-,0,0,WONOKROMO,NGAGEL,SURABAYA,JAWA TIMUR,60246,081 387 254 934
LT,10714301057000,PT. MARUFUJI KENZAI INDONESIA,KAWS. BERIKAT NGORO INDUSTRI PERSADA,F,1,0,0,NGORO,NGORO,MOJOKERTO,JAWA TIMUR,61385,0321-6819206/09
LT,14660526614000,CV. SURYA PERDANA STEEL,JL. RADEN SALEH 43-A KAV.18,-,-,0,0,BUBUTAN,GUNDIH,SURABAYA,JAWA TIMUR,0,
LT,25131913624000,PT. INFION,JL. RAYA KASRI,-,153,2,2,PANDAAN,TAWANGREJO,PASURUAN,JAWA TIMUR,0,0343-631761
LT,19761337615000,CV SARANA SURYA JAYA,JL. RAYA KALIRUNGKUT ,5,H-15,0,0,RUNGKUT,KALIRUNGKUT,SURABAYA,JAWA TIMUR,0,
LT,14797237631000,PT. SINAR WARINGIN ADIKARYA,JL. KALIANYAR NO. 42,-,-,0,0,GENTENG,KAPASARI,SURABAYA,JAWA TIMUR,0,031 - 99015081
LT,26382168603000,PT. TAMAN PRATAMA,RAYA TAMAN,-,5,14,3,TAMAN,TAMAN,SIDOARJO,JAWA TIMUR,61257,
LT,313777013604000,PT. PERKASA ADI DAYA INDONESIA,PASAR MODERN PUNCAK PERMAI TOKO 67 JL. RY DARMO PERMAI III,______,_____,0,0,SUKOMANUNGGAL,SUKOMANUNGGAL ,SURABAYA,JAWA TIMUR,0,
LT,15461825641000,PT. SINAR SURABAYASAKTI,KALIJATEN ,_____,65,0,0,SIDOARJO,TAMAN,SIDOARJO,JAWA TIMUR,0,
LT,22976039641000,PT. AGROFOOD MAKMUR MANDIRI,RAYA KRIAN - MOJOSARI,-,-,3,5,PUNGGING,WATUKENONGO,MOJOKERTO,JAWA TIMUR,0,
LT,732261110603000,PT. SIEMENTECHNO DRIVE INDONESIA,TAMAN PONDOK JATI,DD,6,40,6,TAMAN,GELURAN,SIDOARJO,JAWA TIMUR,0,031-99780315 / 081 252 839 73
LT,17159963631000,PT. MALIDAS STERILINDO,JL. DEMANG SINGOMENGGOLO,-,22,5,2,BUDURAN,SIDOMULYO,SIDOARJO,JAWA TIMUR,61252,
LT,664327590911000,CV. JAYA ABADI,JL. DUYUNG LINGK PONDOK PRASI,-,11,9,49,AMPENAN,BINTARO,MATARAM,NUSA TENGGARA BARAT,83118,0819 0783 0909
LT,25037904725000,PT. MOTASA INDONESIA,SOEKARNO - HATTA  RT. 004,-,-,0,0,LOA JANAN,LOA JANAN ULU,KUTAI KERTANEGARA,KALIMANTAN TIMUR,75591,031-8551660
LT,22108070641000,PT. ASRY AMANAH TIMUR,"JL. RAYA PAGERWOJO, TAMAN TIARA REGENCY",A,7,30,7,SIDOARJO,PUCANG,SIDOARJO,JAWA TIMUR,0,
LT,31815798643000,CV. DWI PUTRA ABADI,GRIYA PERMATA GEDANGAN ,L,Apr-31,6,7,GEDANGAN,KEBOANSIKEP,SIDOARJO,JAWA TIMUR,61254,
LT,23770845609000,PT. DUTA RAMA,KETINTANG BARU 2 KAV. 45,-,-,0,0,GAYUNGAN,KETINTANG,SURABAYA,JAWA TIMUR,0,
LT,314931932612000,PT. LASER JAYA SENTOSA,JL. IKAN DORANG ,-,1-Jan,1,9,GRESIK,SIDOKUMPUL,GRESIK,JAWA TIMUR,61111,031-3972522
LT,23617285731000,PT. CARAKA GUNA,"JL. A. YANI KM. 2,5 ",-,9,14,0,BANJARMASIN TENGAH,SUNGAI BARU,BANJARMASIN,KALIMANTAN SELATAN,0,
LT,17434010841000,PT. WIDAYA INTI PLASMA,INDUSTRI 08,-,-,0,0,TAMAN,BRINGINBENDO,SIDOARJO,JAWA TIMUR,0,031-7886582
LT,17434010641000,PT. WIDAYA INTI PLASMA,INDUSTRI 8,-,-,0,0,TAMAN,BRINGINBENDO,SIDOARJO,JAWA TIMUR,0,
LT,18294629641000,PT. POLY ARRAD PUSAKA,JL. MBAH SARAH,-,-,0,0,BUDURAN,WADUNGASIH,SIDOARJO,JAWA TIMUR,0,031-8432268
LT,20822300651000,PT. ES MINERAL SUMBER ABADI,"DUSUN KONANG SUKORENO, PRIGEN",-,-,0,0,-,-,PASURUAN,JAWA TIMUR,67157,0343-633777
LT,10016236051000,PT. BARATA INDONESIA (PERSERO),JL. VETERAN ,-,241,0,0,KEBOMAS,SIDOMORO,GRESIK,JAWA TIMUR,61123,031-3990532
LT,26074112619000,CV. CITRA JAYA,JL. LEBAK TIMUR II / 523-E,-,-,0,0,TAMBAKSARI,GADING,SURABAYA,JAWA TIMUR,0,
LT,14386320641000,PT. WIJAYA PANCA SENTOSA FOOD,JL. RAYA KLETEK NO. 96 - A,-,-,0,0,TAMAN,KLETEK,SIDOARJO,JAWA TIMUR,61257,031 - 7882322
LT,26304675432000,PT. GENTA BUANA TRIPADU,JL. RAYA SILIWANGI RUKO PASAR SEGAR,RA,10,1,1,RAWA LUMBU,BOJONG RAWA LUMBU,BEKASI,JAWA BARAT,17116,021-824 325 86
LT,31257108609000,CV. SARI JAYA,BENDUL MERISI PERMAI ,B,6,2,9,WONOCOLO,BENDUL MERISI,SURABAYA,JAWA TIMUR,0,031 - 8492543
LT,24581282631000,PT. SUTINDO CHEMICAL INDONESIA,JL. TANJUNGSARI NO. 44-I,-,-,0,0,SUKOMANUNGGAL,SIMOMULYO,SURABAYA,JAWA TIMUR,0,
LT,25256264641000,PT. BUMI NUSA MAKMUR,DSN. PESANTREN ,-,-,0,0,PURI,MEDALI,MOJOKERTO,JAWA TIMUR,0,0321 - 513700
LT,13713524092000,PT. SINAR ALAM PERMAI,"JL. BLABAK   NO. 18, ",-,-,0,0,ILIR TIMUR II,3 ILIR,PALEMBANG,SUMATERA SELATAN,30116,0711-710519
LT,25368929922000,PT. SINAR BANGUN MANDIRI,JL. PROF. DR. HERMAN JOHANIS,-,-,0,0,KELAPA LIMA,LASIANA,KUPANG,NUSA TENGGARA TIMUR,85228,MARCEL (0811381158)
LT,11224862641000,PT. SURABAYA ACETYLENE BAMBE,JL. RAYA BAMBE,-,-,0,0,DRIYOREJO,BAMBE,GRESIK,JAWA TIMUR,0,031 - 7507035
LT,15338106904000,PT. INDOCITRA JAYA SAMUDERA,DUSUN KETAPANG MUARA,-,-,0,0,NEGARA,PENGAMBENGAN,JEMBRANA,BALI,82251,0365 - 41915
LT,21930730057000,PT. DUTA SUGAR INTERNATIONAL,GEDUNG MULTIVISION TOWER Lt.12 JL. KUNINGAN MULIA ,9-B,-,0,0,SETIABUDI,GUNTUR,JAKARTA SELATAN,DKI JAKARTA RAYA,12980,061-41023402 (JINNY)
LT,28748820121000,PT. PERSADA DINAMIKA JAYA,JL. DI PANJAITAN NO.23  LK XII,-,-,0,0,MEDAN BARU,BABURA,MEDAN,SUMATERA UTARA,20154,
LT,16638777641000,PT. SOPANUSA TISSUE & PACKAGING SARANASUKSES,DSN. MANDUROMANGGUNGGAJAH,-,-,0,0,NGORO,MANDUROMANGGUNGGAJAH,MOJOKERTO,JAWA TTIMUR,0,
LT,14974612631000,"INTERJAYA SURYA MEGAH,PT",RUNGKUT INDUSTRI ,III,55,0,0,RUNGKUT MENANGGAL,_______________,SURABAYA,JAWA TIMUR,0,
LT,24542334631000,PT. MULTINAS INDONESIA,JL. KEDUNG COWEK 94,-,-,0,0,TAMBAKSARI,GADING,SURABAYA,JAWA TIMUR,0,031 - 51501000
LT,20591301058000,PT. FABS INDONESIA,"RS. FATMAWATI KAV. 39 , KOMP. NIAGA DUTA MAS",D1,18,0,0,KEBAYORAN BARU,CIPETE UTARA,JAKARTA SELATAN,DKI JAKARTA RAYA,12150,021-7234133
LT,721417632612000,PT. ANGKASA RAYA STEEL,RAYA MANYAREJO KAV. 03,-,-,2,2,MANYAR,MANYAREJO,GRESIK,JAWA TIMUR,0,
LT,29094836415000,PT. YAMA ENGINEERING,KOMP RUKO BIDEX BSD CITY I.16 - LENGKONG GUDANG,-,-,0,0,SERPONG,LENGKONG GUDANG,TANGERANG SELATAN,BANTEN,15318,021 - 53153846
LT,31134463615000,CV. INDRA CIPTA PERSADA,PURI GUNUNGANYAR REGENCY,B,3,2,7,GUNUNG ANYAR,GUNUNG ANYAR TAMBAK,SURABAYA,JAWA TIMUR,60294,0812 3222 3959
LT,14680458609000,PT. RIS PUTRA DELTA,GAYUNG KEBONSARI GRAHA INDAH WISESA,B-6,44-A,0,0,GAYUNGAN,GAYUNGAN,SURABAYA,JAWA TIMUR,0,
LT,12085395051000,PT. PETROSIDA GRESIK,JL. KIG RAYA UTARA KAVLING O NO. 5,-,-,0,0,MANYAR,ROOMO,GRESIK,JAWA TIMUR,61151,
LT,20971172218000,CV. TRIGUNA KARYA MANDIRI,"JL. PROF. M. YAMIN , SH NO.30",-,-,0,0,SENAPELAN,SAGO,PEKANBARU,RIAU,0,
LT,11370038641000,PT. CORONET CROWN,JL. RAYA TAMAN KM. 15 SURABAYA,-,--,0,0,TAMAN,TAMAN,SIDOARJO,JAWA TIMUR,61257,031 - 7882473
LT,23137532651000,PT. AGAR SEHAT MAKMUR LESTARI,DUSUN BABATAN,-,-,9,3,PURWOSARI,BAKALAN,PASURUAN,JAWA TIMUR,67162,0343-612408 / 613067
LT,11225125642000,PT. TEKUN KARYA ABADI,DESA CANGKIR,-,-,0,0,DRIYOREJO,CANGKIR,GRESIK,JAWA TIMUR,61177,031-8410001
LT,711815639602000,PT. SINERGY POWER SOURCE,JALAN DSN BAJANGAN,-,-,0,0,PUNGGING,KEMBANGRINGGIT,MOJOKERTO,JAWA TIMUR,0,0321 - 6820250 / 0822 - 2600 - 6430
LT,27508126086000,TRASTI SUPPLIER,"RUKAN PURI MANSION, JL. LINGKAR LUAR BARAT",C,29-35,2,1,JAKARTA BARAT,KEMBANGAN SELATAN,JABOTABEK,JAWA BARAT,0,
LT,314135807604000,PT. SURYA SEJAHTERA BERSAMA,Jl. RAYA MANUKAN WETAN ,A/10,46,0,0,MANUKAN,MANUKAN WETAN,SURABAYA,JAWA  TIMUR,0,
LT,11113917812000,PT. MEGAHPUTRA SEJAHTERA,JL. G. LATIMOJONG 131,-,-,0,0,BONTOALA,GADDONG,MAKASSAR,SULAWESI SELATAN,0,081 24269476
LT,53336103609000,"SUTOYO, IR, MSC.",JL. GAYUNG SARI IX/7,-,-,0,0,GAYUNGAN,GAYUNGAN,SURABAYA,JAWA TIMUR,0,
LT,312671225642000,PT. MEGA GLOBAL FOOD INDUSTRY,JL. RAYA TENARU INDUSTRI,-,-,2,1,DRIYOREJO,CANGKIR,GRESIK,JAWA TIMUR,61177,
LT,33299025606000,PT. WAHYU DAYA MANDIRI,JL. GUBENG KERTAJAYA 5 RAYA NO. 42,-,-,0,0,GUBENG,AIRLANGGA,SURABAYA,JAWA TIMUR,0,
LT,315604397625000,CV. TANJUNG RIMBA PERKASA,JL. SLAMET WARDOYO,-,18,1,2,LUMAJANG,LABRUK LOR,LUMAJANG,JAWA TIMUR,67316,0334 - 881189
LT,25629197603000,CV. PUTRA REMAJA ENGINEERING,TAMAN SUKO ASRI ,EE,1,26,7,SUKODONO,SUKO,SIDOARJO,JAWA TIMUR,0,031 - 7874266
LT,18151274731000,PT. INTANI JAYA SEMESTA,JL. JEND. A. YANI KM.2 NO.148  RT.016,-,-,0,0,BANJARMASIN TENGAH ,SUNGAI BARU,BANJARMASIN,KALIMANTAN TENGAH,70233,
LT,737283663655000,CV. INDOPERTAMA,DUDUN KUNTI,-,-,1,4,PURWOASRI,MRANGGEN,KEDIRI,JAWA TIMUR,0,
LT,11113024631000,PT. SUMBER MAS INDAH PLYWOOD,JL. TANJUNG SADARI,-,23,0,0,KREMBANGAN,PERAK BARAT,SURABAYA,JAWA TIMUR,0,031-3981511
LT,20946661026000,PT.DINAMIKA FLOW TEKNOLOGI,P.JAYAKARTA 141,I-C,1,0,0,JAKARTA PUSAT,MANGGA DUA,JABOTABEK,JAWA BARAT,0,
LT,317274918615000,PT. TRI KENCANA PRIMA,"RUKO RUNGKUT MEGAH RAYA D - 30 , JL. KALIRUNGKUT NO. 5",-,-,0,0,RUNGKUT,KALIRUNGKUT,SURABAYA,JAWA  TIMUR,60293,
LT,30165070034000,PT. DB ENGINEERING SYSTEMS,JL. PERGUDANGAN PRIMA CENTER 2,A/9,-,0,0,CENGKARENG,KEDAUNG KALIANGKE,JAKARTA BARAT,DKI JAKARTA RAYA,11710,
LT,27417880431000,PT. MITRA ALUMINDO SELARAS,DUSUN KLAPANUNGGAL,-,-,27,7,KLARI,GINTUNGKERTA,KARAWANG,JAWA BARAT,0,
LT,22565691631000,PT. HARMA CONTRACTOR INDONESIA,JL. MARGOMULYO 44 ,HH,20,0,0,ASEMROWO,GREGES,SURABAYA,JAWA TIMUR,0,
LT,16744765007000,PT. SARANABAJA RAGAMCITRA,JL. RAYA BEKASI,-,-,0,0,CAKUNG,CAKUNGTIMUR,JAKARTA TIMUR,DKI JAKARTA RAYA,13910,
LT,12562872611000,PT. PRIMA HITECH PERKASA,UNDAAN WETAN,______,48D,0,0,______________,KETABANG,SURABAYA,JAWA TIMUR,0,
LT,20918348604000,CV. ILHAM KUSUMA,SIMOMULYO BARU ,04-B,4,11,3,SUKOMANUNGGAL ,SIMOMULYO,SURABAYA,JAWA TIMUR,60281,031 - 28813727
LT,17714940631000,PT. JULUNGWANGI TIRTA WAHANA,TENGGILIS JAYA,C,11,1,5,TENGGILIS MEJOYO,TENGGILIS MEJOYO,SURABAYA,JJAWA TIMUR,60292,031-8410656
LT,28845956712000,CV. CAHAYA BERSAMA ,"JL. PERCA, GG. BUNTU",-,-,19,8,MENTAWA BARU KETAPANG,MENTAWA BARU HULU,KOTAWARINGIN TIMUR,KALIMANTAN TENGAH,0,
LT,20109427612000,CV. FIRDAUS,JL. NYAI AGENG AREM - AREM NO. 40,-,-,0,0,GRESIK,KEBUNGSON,GRESIK,JAWA TIMUR,61115,
LT,24195570615000,PT. ENVIRONEER,JL. RUNGKUT INDUSTRI ,III,77,0,0,-,-,SURABAYA,JAWA TIMUR,60293,031-8436617
LT,15236755651000,PT. GALANGCITRAMITRA MAJUMAPAN,JL. TEGAL MAPAN,-,18,1,3,PAKIS,PAKIS JAJAR,MALANG,JAWA TIMUR,65154,0341-494888 / 490492
LT,14398416619000,PT. APIE INDOKARUNIA,JL. KALILOM BARU,I,16,1,8,KENJERAN,TANAH KALI KEDINDING,SURABAYA,JAWA TIMUR,60129,
LT,15444185641000,PT. SURINDO TEGUH GEMILANG,DESA KEPATIHAN,-,-,0,0,MENGANTI,KEPATIHAN,GRESIK,JAWA TIMUR,0,
LT,316393420507000,PT. INDOCITRA PUTERA SAMUDRA,JL. PATI JUWANA,-,-,6,11,PATI,PURWOREJO,PATI,JAWA TENGAH,59119,
LT,18829044052000,PT. APLUS PACIFIC,JL. PRABU SILIWANGI KM. 3,-,-,0,0,JATIUWUNG,PASIR JAYA,TANGERANG,BANTEN,0,
LT,22124333651000,PT. NATHANIA FURNITURE,JL. TUNGGUL AMETUNG N0. 179,-,-,0,0,SINGOSARI,CANDI RENGGO,MALANG,JAWA TIMUR,0,
LT,19270057721000,CV. MUTIARA TIMUR,JL. RUHUI RAHAYU KOMP. PGRI,I,4,73,22,BALIKPAPAN SELATAN,GUNUNG BAHAGIA,BALIKPAPAN,KALIMANTAN TIMUR,76114,0542 - 874464
LT,712575737215000,PT. MIXON FLUID TECHNOLOGY,GEDUNG GARAHA PENA LT. 08 SUITE 805H,-,-,0,0,BATAM KOTA,TELUK TERING,BATAM,KEPULAUAN RIAU,0,
LT,317237220606000,CV. JAVINDOTECH,GALAXI KLAMPIS ASRI SEL. VI / J4 - 38,-,-,0,0,SUKOLILO,SEMOLOWARU,SURABAYA,JAWA TIMUR,60119,
LT,26071423643000,CV. SINAR ENERGI GEMILANG,TIRTA RAYA GRAHA TIRTA,-,2,1,14,WARU,KUREKSARI,SIDOARJO,JAWA TIMUR,0,031 - 8542462 
LT,23911886643000,CV. KARYA MANDIRI SEJAHTERA,JL. RAMBUTAN TENGAH ,II/D,251,27,8,WARU,TAMBAKSUMUR,SIDOARJO,JAWA TIMUR,61256,
LT,1892132602000,BEND. PUMC DPU CIPTA KARYA,JL. MERDEKA 151,-,-,0,0,JOMBANG,CANDIMULYO,JOMBANG,JAWA TIMUR,0,
LT,737680637617000,CV. SELARAS BERKAH,BUMI CANDI ASRI,N6,4,13,4,CANDI,NGAMPELSARI,SIDOARJO,JAWA TIMUR,0,0812 5299 4871
LT,15312580615000,PT. TERAS SUPRAPERSADA,JL. PRAPEN INDAH,D,4,4,2,TENGGILIS MEJOYO,PRAPEN,SURABAYA,JAWA TIMUR,60299,031 - 8419101
LT,703775403624000,CV. TERANG ABADI,PERUM PONDOK SURYA KENCANA 3,D,8,3,5,GADING REJO,GENTONG,PASURUAN,JAWA TIMUR,0,
LT,26482984056000,PT. KEMIRA INDONESIA,"PERWATA TOWER CBD PLUIT LT. 7-E , JL. PLUIT SELATAN RAYA ",-,-,0,0,PENJARINGAN,PENJARINGAN,JAKARTA UTARA,DKI JAKARTA RAYA,0,021-66676863
LT,14386775641000,PT. TJOKRO PUTRAPERKASA,JL. BERBEK INDUSTRI I/2,-,-,0,0,WARU,BERBEK ,SIDOARJO,JAWA TIMUR,60400,031-8430718
LT,11069317511000,PT. BATAM  TEXTILE INDUSTRY,-,-,-,0,0,UNGARAN BARAT,LANGENSARI,SEMARANG,JAWA TENGAH,50501,024-6921028
LT,20260840603000,CV. REZA TAMA,JL. KETAPANG II,A,23,6,2,SUKODONO,SUKO,SIDOARJO,JAWA TIMUR,0,
LT,711535583726000,PT. ALFALUK ADI TIRTA,JL. PROPINSI KM. 26,-,26,1,0,WARU,SESULU,PENAJAM PASER UTARA,KALIMANTAN TIMUR,76284,
LT,210761037542000,CV. LESTARI MAKMUR,PERUM GRIYA GEJAWAN INDAH,AB,7,8,51,GAMPING,BALECATUR,SLEMAN,D.I YOGYAKARTA,55295,
LT,721671717407000,PT. GLOBAL SINERGI UTAMA,JL. JEND. A. YANI,B4,16,9,12,BEKASI SELATAN,KAYURINGIN JAYA,BEKASI,JAWA BARAT,0,
LT,13672795034000,PT.GOLDEN MULIONO PRATAMA,KAPUK BLOK N KAV 46,______,_____,0,0,______________,KAPUK,JAKARTA BARAT,JAWA BARAT,0,
LT,13747399059000,PT.ATLAS COPCO NUSANTARA,KAWASAN KOMERSIAL CILANDAK 201 JL. RAYA CILANDAK KKO,______,____,0,0,______________,CILANDAK TIMUR,JAKARTA SELATAN,JAWA BARAT,0,
LT,16390536301000,CV. SUMBER BAHAGIA,JL. PASAR LR GAJAH NO. 469 RT.011,-,-,0,0,ILIR TIMUR 1,16 ILIR,PALEMBANG,SUMATERA SELATAN,30122,
LT,10005890055000,PT. MHE - DEMAG INDONESIA,GRAHA INTI FAUZI LT. 7 JL. BUNCIT RAYA NO. 22,-,-,0,0,PASAR MINGGU,PEJATEN BARAT,JAKARTA SELATAN,DKI JAKARTA RAYA,12510,
LT,68565316655000,BAMBANG SUWANTONO,DSN. BALONGJERUK,-,-,2,1,KUNJANG,BALONG JERUK,KEDIRI,JAWA TIMUR,0,
LT,15268030614000,PT. CENTRAL TEKNINDO ABADIPERKASA,RADEN SALEH 3 - A,-,-,0,0,BUBUTAN,GUNDIH ,SURABAYA,JAWA TIMUR,0,
LT,210349247432000,PT. STAR INDUSTRIAL SUPPLIER,"RUKO MEDITERANIA REGENCY BLOK. 1-3 NO. 7A ( JL. DR. RATNA),",-,-,0,0,PONDOKGEDE,JATIBENING,BEKASI,JAWA BARAT,0,
LT,14627137092000,PT. HARTONO ISTANA TEKNOLOGI,JL. KHR. ASNAWI PO BOX 126,-,-,0,0,KALIWUNGU,-,KUDUS,JAWA TENGAH,59332,
LT,11332095631000,PT. ABADI ADIMULIA,JL. RUNGKUT INDUSTRI,I,14,1,5,TENGGILIS MEJOYO,KENDANGSARI,SURABAYA,JAWA TIMUR,60292,
LT,26329540605000,PT. BAHTERA BERSAUDARA,JL. KEMAYORAN BARU,-,19,9,2,KREMBANGAN,KREMBANGAN SELATAN,SURABAYA,JAWA TIMUR,0,
LT,27536374732000,PT. PANCA KONSTRUKSI,"JL. A YANI KM.12,7",-,-,3,5,GAMBUT,GAMBUT,BANJAR,KALIMANTAN SELATAN,70652,
LT,23016132646000,CV. MANUNGGAL SEHATI,DS. MANTREN RT.004 RW.003,-,-,0,0,KARANGREJO,-,MAGETAN,JAWA TIMUR,0,
LT,19761832615000,CV. ATTATEKNIK FILTER,JL. KENDANGSARI,VI,38,5,1,TENGGILIS MEJOYO,KENDANGSARI,SURABAYA,JAWA TIMUR,60292,031-8417069
LT,211179130402000,PT. NADIRA GALUNDI,JL. UJUNG PANDANG,-,1,2,4,KARAWACI,CIMONE,TANGERANG,BANTEN,15114,021-291169083
LT,11409380054000,PT. SEKAR LAUT TBK.,JL. RAYA DARMO NO. 23 - 2,-,-,0,0,-,-,SURABAYA ,JAWA TIMUR,60265,031-5671371
LT,368356713113000,HADI WINATA,JL. BEDAGAI NO. 9 ,-,-,0,0,MEDAN TIMUR,SIDODADI,MEDAN ,SUMATERA UTARA,20234,
LT,313587990113000,CV. DUTA ABADI MAS,JL. BEDAGAI NO. 9,-,-,0,0,MEDAN TIMUR,SIDODADI,MEDAN,SUMATERA UTARA,20234,
LT,741759419113000,CV. FAJAR SEMESTA KENCANA,JL. BEDAGAI NO. 9 - A,-,-,0,0,MEDAN TIMUR,SIDODADI,MEDAN ,SUMATERA UTARA,0,
LT,23134497651000,PT. KHARISMA CITRA ABADI,KI HAJAR DEWANTORO / PERUM PAPAN BESTARI  I BA - 15,-,-,0,0,PURWOREJO,TEMBOKREJO,PASURUAN,JAWA TIMUR,0,
LT,11323797526000,PT. SOLO MURNI,JL. A. YANI NO. 378,-,-,0,0,LAWEYAN,KERTEN,SURAKARTA,JAWA TENGAH,57143,
LT,17437526617000,CV. MAHIR JAYA,JL. BABATAN,-,-,9,3,SIDOARJO,JATI,SIDOARJO,JAWA TIMUR,61251,031 - 8968216
LT,10027084731000,PT. SURYA SATRYA TIMUR,JL. IR. PHM. NOOR ,-,99,0,0,BANJARMASIN BARAT,KUIN CERUCUK,BANJARMASIN,KALIMANTAN SELATAN,70129,
LT,28242170612000,PT. SUMBER BERSIH DUNIA,TRI DHARMA 3/A-1,-,-,0,0,KEBOMAS,KEBOMAS,GRESIK,JAWA TIMUR,61121,031 - 3987504 / 05
LT,23915374641000,PT. KARYA ANUGERAH JAYA,"KOMP. PERGUDANGAN MEIKO ABADI B - 26, JL. RAYA BETRO,",-,-,0,0,GEDANGAN,WEDI,SIDOARJO,JAWA TIMUR,0,
LT,21136759631000,PT. SEMERU TEKNIK,JL. BUBUTAN ,-,35,1,4,BUBUTAN,BUBUTAN,SURABAYA,JAWA TIMUR,60174,
LT,315242693614000,PT. SEMERU INTI SUKSES,"JL. RADEN SALEH PERMAI KAV. 29 , NO. 53 - C",-,-,0,0,BUBUTAN,BUBUTAN,SURABAYA,JAWA TIMUR,0,
LT,733445639655000,PT. ALAM TIRTA PLAST,MATARAM,-,183,7,1,NGASEM,KARANGREJO,KEDIRI,JAWA TIMUR,0,
LT,764581567652000,CV. RAKA KARYA MANDIRI,PONDOK BLIMBING INDAH ,I,9-Mar,5,11,BLIMBING,PANDANWANGI,MALANG,JAWA TIMUR,0,
LT,701882060611000,PT. MULTI PAKAN JAYA SENTOSA,"BUMI MANDIRI TOWER 2 LT. 6 R 602 , JL. PANGLIMA SUDIRMAN",-,66-68,1,7,GENTENG,EMBONG KALIASIN,SURABAYA,JAWA TIMUR,0,
LT,315517441643000,PT. LUMBUNG USAHA MULIA,JL. LINGKAR TIMUR KO. PERGUD. SINAR BUDURAN II,B,20,0,0,BUDURAN,PRASUNG,SIDOARJO,JAWA TIMUR,61252,
LT,705152031063000,PT. SURYA JALUR ANUGERAH,"GD. GRAHA IRAMA LT. 10 UNIT. A - B, JL. HR. RASUNA SAID ",X-1,2-Jan,0,0,SETIABUDI,KUNINGAN TIMUR,JAKARTA SELATAN,DKI JAKARTA RAYA,0,
LT,729051458417000,PT. BENS PRO INDONESIA,KOMP. PCI ,E-30,7,4,7,CIBEBER,CIBEBER,CILEGON,BANTEN,0,
LT,25120668503000,PT. ANUGERAH JAYA MITRA,PURI ANJASMORO,B,9-Jul,0,0,SEMARANG BARAT,TAWANG MAS,SEMARANG,JAWA TENGAH,0,
LT,31486103645001,PT. KEBUN TEBU MAS,JL. SUNAN GIRI KOMPLEK LTC,A,12,1,7,LAMONGAN,TUMENGGUNG,LAMONGAN,JAWA TIMUR,0,
LT,19132117625000,PT. SUKSES LAUTAN INDONESIA (SULINDO),JL. TANJUNG TEMBAGA BARAT,-,-,6,3,MAYANGAN,MAYANGAN,PROBOLINGGO,JAWA TIMUR,0,
LT,211506571614000,PT. GOLDEN BERKAT UTAMA,KOBLEN NO. 4 B,-,-,0,0,BUBUTAN,BUBUTAN,SURABAYA,JAWA TIMUR,0,
LT,317407724603000,PT. ANEKA KAKAO ,"JL. RAYA PILANG KM.5  NO. 8 , DSN. RAME",-,-,24,12,WONOAYU,PILANG,SIDOARJO,JAWA TIMUR,0,
LT,22105274643000,CV. SARANA LOGISTAMA,RUKO DELTASARI INDAH ,AN,32,3,12,WARU,KUREKSARI,SIDOARJO,JAWA TIMUR,61256,031 - 8533761
LT,17220807641000,PT. INTIDRAGON SURYATAMA,JL. PAHLAWAN ,-,44,2,1,KRANGGAN,KRANGGAN,MOJOKERTO,JAWA TIMUR,0,
LT,313819310625000,PT. BROMO FALCATA INDONESIA,JL. BRANTAS KM. 1,-,--,0,0,KADEMANGAN,PILANG ,PROBOLINGGO,JAWA TIMUR,0,
LT,752659821404000,PT. BIMA SAKTI ENGINEERING,SINDANGBARANG PILAR ,I,204,3,7,_______________,SINDANG BARANG,BOGOR,JAWA BARAT,0,_________________
LT,26047894018000,PT. NUSANTARA SAWIT PERSADA,"MERANA IMPERIUM LT. 16 SUITE B, JL. HR. RASUNA SAID KAV 1.",-,-,0,0,SETIABUDI,GUNTUR,JAKARTA SELATAN,DKI JAKARTA,12980,021-8354045
LT,11224813641000,PT. UNIMOS,JL. RAYA BAMBE,-,-,0,0,DRIYOREJO,BAMBE,GRESIK,JAWA TIMUR,0,
LT,724888458604000,PT. SACHIO INDONESIA,MARGOMULYO INDAH,1A,8-Jul,0,0,TANDES,BALONGSARI,SURABAYA,JAWA TIMUR,0,
LT,708798541643000,CV. TEBE JAYA ABADI,JL. SONO INDAH UTARA,III,37,4,5,BUDURAN,SIDOKERTO,SIDOARJO,JAWA TIMUR,0,
LT,17103300651000,CV. ANEKA GRAFIKA,JL. SAXOFON,-,-,2,6,LOWOK WARU,JATIMULYO,MALANG,JAWA TIMUR,65141,0341-405050
LT,11329232054000,PT. BERLINA TBK,"JL. JABABEKA RAYA BLOK E.12 - 17, KAWASAN INDUSTRI JABABEKA - CIKARANG, WANGUNHARJA, CIKARANG UTARA, BEKASI - JAWA BARAT 17520",-,--,0,0,-,-,-,-,0,
LT,28274017643000,CV. GLOBAL MITRABADI,"JL.TROPODO II / 65, TROPODO - SIDOARJO 61256",-,-,0,0,-,-,-,-,0,
LT,318088390657000,PT. KENCANA TIARA GEMILANG,JL. RAYA SURABAYA - MALANG KM. 77,-,-,0,0,SINGOSARI,ARDIMULYO,MALANG,JAWA TIMUR,0,
LT,10021848051000,PT. PETRO KIMIA KAYAKU,JL. JEND. AHMAD YANI,-,-,0,0,GRESIK,-,GRESIK,JAWA TIMUR,0,
LT,32809121041000,PT. MEGA DAYA INDUSTRI,RUKO BANDENGAN MEGAH ,B-19,81,0,0,PENJARINGAN,PENJARINGAN,JAKARTA UTARA,DKI JAKARTA,14440,021-6625833
LT,13234687725000,PT. PIPIT MUTIARA JAYA,JL. YOS SUDARSO,-,81,0,0,KOTAMADYA TARAKAN,SELUMIT,TARAKAN,KALIMANTAN TIMUR ,77113,
LT,719428930615000,PT. GUSSE TECHNOLOGY INTERNATIONAL,JL. RUNGKUT MENANGGAL HARAPAN ,Q,11,1,4,GUNUNG ANYAR,RUNGKUT MENANGGAL,SURABAYA,JAWA TIMUR,60293,031 - 8706983
LT,10618650057000,PT. HILON INDONESIA,JL. PUTERA UTAMA NO. 9 KAWASAN INDUSTRI PASAR KEMIS,-,-,0,0,PASAR KEMIS,SUKA ASIH,TANGGERANG ,BANTEN,15560,
LT,316135748602000,CV. CEMERLANG LINGKUNGAN INTERNUSA,JL. KAHURIPAN ,II,4,10,3,MOJOANYAR,JABON,MOJOKERTO,JAWA TIMUR,0,0321-331704
LT,887459428619000,DAUD JULIANTO W,JL. BOGEN NO. 15-I,-,-,0,0,TAMBAKSARI,PLOSO,SURABAYA,JAWA TIMUR,0,
LT,11328598604000,PT. BARINDO ANGGUN INDUSTRI,JL. SIMOPOMAHAN,-,148P-150P,0,0,SUKO MANUNGGAL,SIMOMULYO,SURABAYA,JAWA TIMUR,0,
LT,14412316631000,PT. MATAHARI SAKTI,MARGOMULYO INDUSTRI I,A,13-Sep,1,1,ASEMROWO,TAMBAK SARIOSO,SURABAYA,JAWA TIMUR,60183,031-7491199
LT,317883874627000,CV. SUMBER ALAM,"JL. TEMUGURUH KM.4 , DSN. NGANJUKAN",-,-,5,3,SEMPU,KARANGSARI,BANYUWANGI,JAWA TIMUR,0,
LT,25407990605000,PT. TRI JAYA TANGGUH,JL. PERAK BARAT ,-,105,0,0,KREMBANGAN,PERAK BARAT,SURABAYA,JAWA TIMUR,0,
LT,22661268651000,PT. WANA CAHAYA NUGRAHA,JL. RAYA KLAKAH 316,-,--,0,0,KLAKAH,KLAKAH,LUMAJANG,JAWA TIMUR,67356,
LT,708798475614000,PT. BINTANG KARYA STEEL,RAYA MARGOMULYO 46,F,4C,2,2,_______________,______________,SURABAYA,JAWA TIMUR,0,
LT,30641187915000,PT. QUEEN GILI TRAWANGAN,DSN. GILI TRAWANGAN,-,-,0,0,PEMENANG,GILI INDAH,LOMBOK UTARA,NUSA TENGGARA BARAT (NTB),83352,
LT,33282229215000,PT. SINAR INTER PLAST,CAMMO INDUSTRIAL PARK,A2,1,0,0,BATAM KOTA,BALOI PERMAI,BATAM,KEPULAUAN RIAU ,29431,0778-462719
LT,21700653609000,CV. SURYATECH PRATAMA,JL. NGAGEL MULYO,-,3-Sep,8,4,WONOKROMO,NGAGEL REJO ,SURABAYA,JAWA TIMUR,60245,031-5046181
LT,3438348606000,BENDAHARA PENGELUARAN PADA INST. TEKNOLOGI SEPULUH NOPEMBER,KAMPUS ITS SUKOLILO SURABAYA,-,-,0,0,SUKOLILO,KEPUTIH,SURABAYA,JAWA TIMUR,60111,
LT,11331618631000,PT. GELORA DJAJA,JL. BUNTARAN NO. 9,-,-,0,0,TANDES,BUNTARAN,SURABAYA,JAWA  TIMUR,60184,
LT,14386171641000,PT. SURI TANI PEMUKA,JL. RAYA MANYAR,-,-,0,0,MANYAR,MANYAREJO,GRESIK,JAWA TIMUR,0,
LT,14750152904000,PT. INDOHAMAFISH,JL. GATOT KACA NO. 86,-,-,0,0,NEGARA,PENGAMBENGAN,JEMBRANA,BALI,82218,
LT,12332037631000,PT. WIRA BHUMI SEJATI,JL. TENGGILIS TIMUR ,VI,1,0,0,TENGGILIS MEJOYO,TENGGILIS MEJOYO,SURABAYA,JAWA TIMUR,0,
LT,10718161057000,PT. CHEIL JEDANG INDONESIA,"JL. JEND. GATOT SUBROTO N0.38 , MENARA JAMSOSTEK LT. 21",-,-,0,0,MAMPANG PRAPATAN,KUNINGAN BARAT,JAKARTA SELATAN,DKI JAKARTA RAYA,12710,0343 - 482333
LT,750426561615000,PT. KORIN INTIWIRA SEJAHTERA,KH ZAMHURI ,-,29 - 31,1,1,GUNUNG ANYAR,RUNGKUT TENGAH,SURABAYA,JAWA TIMUR,60293,031-8918090
LT,18291757603000,PT. INDOPLASTIKA JAYA ABADI,JL. RAYA KLETEK ,-,196 - 197,0,0,TAMAN,KLETEK,SIDOARJO,JAWA TIMUR,61257,031-788217
LT,705345825652000,CV. HDS ENGINEERING,JL. GAJAYANA,1.C,739,6,2,LOWOK WARU,DINOYO,MALANG,JAWA TIMUR,0,
LT,312189756614000,PT. DOMINIC NISI,KALIANAK BARAT ,-,55 - EG,2,3,ASEMROWO,GENTING,SURABAYA,JAWA TIMUR,60183,0321 - 6850031 / 32
LT,317723476625000,PT. SUKSES TEKNIK INDONESIA,JL. TANJUNG TEMBAGA BARAT PELABUHAN PROBOLINGGO ,-,-,6,3,MAYANGAN ,MANYANGAN,PROBOLINGGO,JAWA TIMUR,67218,
LT,10720480091000,PT. ENSBURY KALTENG MINING,GEDUNG GRAHA BIP LT.4 JL. JEND. GATOT SUBROTO KAV. 23,-,-,2,2,SETIABUDI,KARET,JAKARTA SELATAN,DKI JAKARTA ,12920,
LT,18293498641000,PT. KURNIA WIJAYA ANEKA INDUSTRI,TAMBAK SAWAH INDUSTRI NO.9,-,-,0,0,WARU,TAMBAK SAWAH,SIDOARJO,JAWA TIMUR,0,
LT,11233830092000,PT. SASA INTI,"DESA SEBAUNG - GENDING , PROBOLINGGO JAWA TIMUR",-,-,0,0,-,-,-,-,0,
LT,759956899617000,PT. KALAM LEVERAGE MULIA,ISTANA CANDI MAS REGENCY ,B5,7,3,6,CANDI,NGAMPELSARI,SIDOARJO,JAWA TIMUR,61271,
LT,10706729052000,PT. SURYA RENGO CONTAINERS,JL. KH AGUS SALIM,-,4,1,7,CIPONDOH ,PORIS PLAWAD,TANGERANG,BANTEN,15141,031-8983180-5
LT,31122575712000,CV. BENGKEL KARYA,JL. ISKANDAR XIX,-,-,7,2,MENTAWA BARU KETAPANG,KETAPANG,KOTAWARINGIN TIMUR,KALIMANTAN TENGAH,0,
LT,314330994451000,PT. QUARTA PRATI YUDHA,"RUKO SANTA MONICA BLOK B - 5,  GADING SERPONG",-,-,0,0,KELAPA DUA ,KELAPA DUA,TANGERANG,BANTEN,15810,
LT,311561245603000,CV. KENCANA ENGINEERING,PERUM PONDOK JEGU INDAH,GG,9,9,2,TAMAN,KRAAMAT JEGU,SIDOARJO,JAWA TIMUR,0,
LT,20262986603000,CV. CIPTA KARYA MANDIRI,GRIYA BHAYANGKARA ,K.2,6,45,9,SUKODONO,MASANGAN KULON,SIDOARJO,JAWA TIMUR,61258,
LT,211230800432000,PT. KIAT ANANDA COLDSTORAGE,JL. RAYA NAROGONG KP. CIKIWUL,-,-,2,6,BANTARGEBANG,CIKIWUL,BEKASI,JAWA BARAT,17152,021 - 82610438
LT,18386805604000,PT. SDA INDONESIA,MARGOMULYO INDAH ,I A,8-Jul,0,0,TANDES,BALONGSARI,SURABAYA,JAWA TIMUR,0,
LT,755154978956000,PT. BANGKIT PANGESTU LESTARI,JL. POLDER DALAM III,-,-,5,2,MERAUKE,MARO,MERAUKE,PAPUA,99613,
LT,31778541606000,PT. PRISMA CAHAYA LESTARI,PUMPUNGAN III/27 KAV. B-20,-,-,0,0,SUKOLILO,MENUR PUMPUNGAN,SURABAYA,JAWA TIMUR,0,
LT,12033304653000,CV. SAPTA SARANA,TGP NO. 25 C,-,-,0,0,KEPANJEN KIDUL,KEPANJEN KIDUL,BLITAR,JAWA TIMUR,66111,
LT,14795363631000,PT. BADJATECHMAS MESINDOPRATAMA,JL. DUPAK ,-,79,14,5,BUBUTAN,GUNDIH,SURABAYA,JAWA TIMUR,60172,
LT,316187814429000,CV. JATI LESTARI,JL. TARUNA RAYA ,-,73,6,2,UJUNG BERUNG,PASIR ENDAH,BANDUNG,JAWA BARAT,0,
LT,11089851631000,PT. PAKABAYA,JL. PAGESANGAN NO. 44,-,-,0,0,JAMBANGAN,PAGESANGAN,SURABAYA,JAWA TIMUR,60233,031-8280555
LT,32281040124000,JO. BRANTAS - WIJAYA KSO,JL. KASUARI NO. 8,-,-,0,0,MEDAN SUNGGAL,-,MEDAN,SUMATERA UTARA,0,
LT,18015453721000,PT. CITRAINTI DAYAMAJU,JL. KOMP. BALIKPAPAN BARU,A-I,7,48,0,BALIKPAPAN SELATAN,DAMAI,BALIKPAPAN ,KALIMANTAN TIMUR,76114,0542 - 876190
LT,20494035619000,CV. PENTA PRATAMA,JL. KENJERAN NO. 273 /11,-,-,0,0,TAMBAKSARI,GADING,SURABAYA,JAWA TIMUR,60134,
LT,22970651641000,PT. KIM LIONG KERAMIK INDONESIA,"NGORO INDUSTRI PERSADA BLK.O - 1,2,3",-,-,0,0,NGORO,NGORO,MOJOKERTO,SURABAYA,0,
LT,12325106609000,PT. INTI KALIASIN,JL. KETINTANG BARU,VIII,15,0,0,-,-,SURABAYA,JAWA TIMUR,60231,031 - 8282744
LT,15461551641000,PT. DIANSARI PURI PLASTINDO,JL. JAWA,-,114,4,1,BUDURAN,WADUNGASIH,SIDOARJO,JAWA TIMUR,61252,
LT,14801120641000,PT. SWABINA GATRA,JL. RA. KARTINI ,-,21-A,0,0,KEBOMAS,SIDOMORO,GRESIK,JAWA TIMUR,0,
LT,22680359723000,PT. TRI MITRA MAKMUR,"JL. RAYA BANYUWANGI , DSN. LAOK BINDUNG",-,-,2,3,KAPONGAN,LANDANGAN,SITUBONDO,JAWA TIMUR,68362,
LT,15717408054000,"PT. FKS MULTI AGRO,TBK","SAMPOERNA STRATEGIC SQUARE - NORTH TOWER LT.3 , JL. JEND SUDIRMAN KAV 45 - 46",-,-,0,4,SETIABUDI,KARET SEMANGGI,JAKARTA SELATAN,DKI JAKARTA,12930,
LT,17395567631000,PT. SENTRAL SUPEL PERKASA,"BG JUNCTION MALL LT. P8 , JL. BUBUTAN",-,7-Jan,1,1,BUBUTAN,BUBUTAN,SURABAYA,JAWA TIMUR,60174,
LT,711239095722000,PT. SRIWIJAYA TEKNIK UTAMA,JL. AW. SYAHRANIE ,-,115,23,0,SAMARINDA UTARA,SEMPAJA SELATAN,SAMARINDA,KALIMANTAN TIMUR,0,
LT,728007709601000,CV. PANCA KARYA,JL. P. POLIM Gg Bromo No. 19 SUMBANG BOJONEGORO,-,-,0,0,-,--,-,-,0,0353 - 2893349
LT,17437401641000,PT. MULTI SPUNINDO JAYA,DSN. JABARAN,-,-,0,0,BALONGBENDO,JABARAN,SIDOARJO,JAWA TIMUR,0,
LT,23977937602000,PT. SINAR PRIMA SAKTI,RAYA MLIRIP,-,32,2,10,JETIS,MLIRIP,MOJOKERTO,JAWA TIMUR,61352,
LT,211103536614000,CV.ANTIKA SUKSES GEMILANG,PASAR BESAR WETAN ,______,30/3,0,0,ALUN ALUN CONTONG,_________________,SURABAYA,JAWA TIMUR,0,
LT,21140215614000,CV. PRIMA STEEL,DUPAK,______,138B,0,0,__________________,GUNDIH,SURABAYA,JAWA  TIMUR,0,
LT,15236169651000,PT. PENAMAS NUSAPRIMA,JL. RAYA KEBONAGUNG (PO. BOX 43),-,-,0,0,PAKISAJI,PAKISAJI,MALANG,JAWA TIMUR,65162,
LT,26650630407000,PT. CIPTA MANDIRI ELEKTRINDO,PERMATA HIJAU PERMAI ,D2,32,1,18,BEKASI UTARA,KALIABANG TENGAH,BEKASI,JAWA BARAT,0,021-88397858
LT,12085494641000,PT. GRESIK MUSTIKA TIMUR,JL. MAYJEN SUNGKONO ,-,XIV / 27,7,3,KEBOMAS,PRAMBANGAN,GRESIK,JAWA TIMUR,61161,031-3981870
LT,32004681643000,PT. DUTA CIPTA ABADI,JL. SEDATIAGUNG,I,90,0,0,SEDATI,SEDATIAGUNG,SIDOARJO,JAWA TIMUR,61253,
LT,16374381651000,PT. BROMO TIRTA LESTARI,DESA BANJARSARI,-,-,0,0,SUMBER ASIH,BANJARSARI,PROBOLINGGO,JAWA TIMUR,67251,0335-428384
LT,10017432057000,PT. KEWALRAM INDONESIA,"M.H THAMRIN , SINAR MAS LAND PLAZA MENARA 2 , LANTAI 12 , SUITE 1203",-,51,9,5,MENTENG,GONDANGDIA,JAKARTA PUSAT ,DKI JAKARTA,10350,022-7798346
LT,19252618651000,PT. KARYADIBYA MAHARDHIKA,JL. RAYA A. YANI,-,-,0,0,PANDAAN,TAWANGREJO,PASURUAN,JAWA TIMUR,67156,0343-636706 / 031-8434100
LT,669120594643000,PURWANTO (UD. GRAND PACK INDONESIA),GRIYO CANDRA MAS,AC,19,11,14,SEDATI,PEPE,SIDOAJO,JAWA TIMUR,0,
LT,75923912048000,PETRUS HERMAN SUGIHARTO,JL. ANCOL SELATAN ,I,30,3,6,TANJUNG PRIOK,SUNTER AGUNG,JAKARTA UTARA,DKI JAKARTA RAYA,0,
LT,765398953012000,PT. TANGGUH BENINGMAS UTAMA,GED. ONE PACIFIC PLACE LT. 15 JL. JEND. SUDIRMAN KAV. 52 - 53,-,-,0,0,KEBAYORAN BARU,SENAYAN,JAKARTA SELATAN,DKI JAKARTA,0,
LT,12331096631000,PT. TEJA SEKAWAN COCOA INDUSTRIES,JL. RUNGKUT INDUSTRI II NO. 27,-,-,0,0,RUNGKUT,KALIRUNGKUT,SURABAYA,JAWA TIMUR,0,
LT,13620943059000,PT. MULYA ADHI PARAMITA,JL. KAPUK KAMAL,-,19,5,2,PENJARINGAN,KAMAL MUARA,JAKARTA UTARA,DKI JAKARTA,14470,031-5683297
LT,14904841641000,PT. HANSA PRATAMA,DESA BAKUNG TEMENGGUNGAN,-,-,0,0,BALONGBENDO,BAKUNGTEMENGGUNGAN,SIDOARJO,JAWA TIMUR,0,
LT,705681286643000,PT. SURYA SUPER NOVA,PERUM DIAMOND PARK RESIDENCE ,B1,37,0,0,GEDANGAN,WEDI,SIDOARJO,JAWA TIMUR,0,
LT,27980077903000,DIESELINDO SERVICE PART,JL. RAYA SESETAN NO. 38 BR.KAJA,-,-,0,0,DENPASAR SELATAN,SESETAN,DENPASAR,BALI,80223,
LT,25250762641000,CV. KHARISMA DUTA UTAMA,JL. MAYJEN SUNGKONO 53,-,-,0,0,KEBOMAS,PRAMBANGAN,GRESIK,JAWA TIMUR,0,031-3972903
LT,12331419615000,CV. HERRY & CO,JL. RUNGKUT INDUSTRI IX / 6 ,-,-,0,0,RUNGKUT,KALIRUNGKUT,SURABAYA,JAWA TIMUR,0,
LT,18300046651000,PT. ISTANA CIPTA SEMBADA,JL. RAYA LABAN ASEM,-,-,0,0,KABAT,LABANASEM,BANYUWANGI,JAWA TIMUR,0,0333-630200
LT,20347662542000,PT. DHEAWINA TEKNO,"JL. JAWA NO. 28 , KAV. 4  WIDORO BARU , CONDONG CATUR",-,-,0,0,-,-,SLEMAN,DI YOGYAKARTA,55283,
LT,11329653615000,PT. CITRA NUTRINDO LANGGENG,RUNGKUT INDUSTRI I,-,21,1,5,TENGGILIS MEJOYO,KENDANGSARI,SURABAYA,JAWA TIMUR,60292,
LT,23478969651000,PT. KARUNIA CATUR PERKASA,JL. RAYA SUMBERPASIR TIMUR189,-,-,0,0,PAKIS,SUMBER PASIR,MALANG,JAWA TIMUR,65154,0341-789888
LT,18133942642000,PT. PELITA MEKAR SEMESTA,DS. SUMPUT,-,-,9,2,DRIYOREJO,SUMPUT,GRESIK,JAWA TIMUR,61177,031-7591000
LT,662643238607000,CV. JAYA ABADI,JL. KEDUNGDORO,-,161-D ,8,3,TEGALSARI,KEDUNGDORO,SURABAYA,JAWA TIMUR,0,
LT,742113699614000,PT. MULTI DRIVE INDONESIA,"JL. RADEN SALEH 43-A , NO. KAV.18",-,-,3,5,BUBUTAN,BUBUTAN,SURABAYA,JAWA TIMUR,0,
LT,315506675607000,CV. MEDIA GEMILANG,JL. KUPANG PANJAAN,IV,36-D,6,4,TEGALSARI,DR. SUTOMO,SURABAYA,JAWA TIMUR,60264,85257387000
LT,24542375606000,CV. APTECH JAYA ABADI,JL. PUCANG SEWU VII / 48,-,-,0,0,GUBENG,PUCANG SEWU,SURABAYA,JAWA TIMUR,60283,
LT,24429284609000,PT. ARENA PRIMA INTERNATIONAL,JL. BUNG TOMO VIII KAV. 20,-,-,0,0,WONOKROMO,NGAGEL,SURABAYA,JAWA TIMUR,60246,
LT,11408978641000,PT. KERTA RAJASA RAYA,JL. TROPODO NO.1,-,-,0,0,WARU,KEPUHKIRIMAN,SIDOARJO,JAWA TIMUR,61256,
LT,21022686642000,PT. SINAR GARUDA MAKMURINDO,JL. RAYA KEDAMEAN ,-,-,20,2,KEDAMEAN,KEDAMEAN,GRESIK,JAWA TIMUR,61175,031 - 7911888
LT,22251532713000,PT. FRESH WATER HILLYUDA,JL. DELIMA ,-,37,8,0,ARUT SELATAN,MADUREJO,KOTAWARINGIN BARAT,KALIMANTAN TENGAH,74112,82159080683
LT,748930138606000,PT. BARQI BROTHER INDONESIA,SEMOLOWARU TIMUR 11 AK NO. 26,-,-,4,8,SUKOLILO,SEMOLOWARU,SURABAYA,JAWA TIMUR,60119,81332233178
LT,10712750057000,PT. ANEKA COFFEE INDUSTRY,DESA TROSOBO,-,-,2,6,TAMAN,TROSOBO,SIDOARJO,JAWA TIMUR,61257,
LT,25611435643000,CV. ARTHA METRO OIL,PERGUDANGAN MEIKO ABADI,C,31,0,0,GEDANGAN,WEDI,SIDOARJO,JAWA TIMUR,0,
LT,19253780651000,PT. PENDAWA POLYSINDO PERKASA,JL. RAYA WONOAYU,AB,11-Oct,1,6,GEMPOL,GEMPOL ,PASURUAN,JAWA TIMUR,67155,
LT,11331816631000,PT. JADI ABADI CORAK BISCUIT FACTORY INDONESIA,JL. RAYA KALIRUNGKUT NO. 7 - 9 ,-,-,0,0,RUNGKUT,KALIRUNGKUT,SURABAYA,JAWA TIMUR,60293,031 - 8700578
LT,33492711721000,PT. JODINA KARUNIA JAYA SEJAHTERA,KOMP. BALIKPAPAN BARU SENTRA EROPA,AA1A,15,9,0,BALIKPAPAN SELATAN,DAMAI BARU,BALIKPAPAN,KALIMANTAN TIMUR,0,
LT,25252214631000,PT. CAHAYA HIDUP PRIMAKARYA,JL. MOJOARUM 7/26,-,-,0,0,GUBENG,MOJO,SURABAYA,JAWA TIMUR,60285,
LT,10017200057000,PT. MIWON INDONESIA,"JL. PERINTIS KEMERDEKAAN 1 - 3 , PULOGADUNG - JAKARTA TIMUR 13260",-,-,0,0,-,-,-,-,0,
LT,11329349631000,PT. MEPOLY INDUSTRY,JL. MARGOMULYO NO. 14 ,-,-,0,0,TANDES,BALONGSARI,SURABAYA,JAWA TIMUR,60186,
LT,17118670651000,PT. INDIRATEX SPINDO,DESA RANDU - AGUNG ,-,-,6,1,SINGOSARI,RANDU AGUNG,MALANG ,JAWA TIMUR,0,
LT,24430548609000,PT. HANDAL YESINDO SEJAHTERA,JL. RAYA KUTISARI NO. 8A ,-,-,0,0,WONOCOLO,SIWALANKERTO,SURABAYA,JAWA TIMUR,60236,
LT,19038744039000,PT.MULTI TEKNIK TELAGA INDONESIA,DAAN MOGOT ,C 12,119,0,0,_______________,DURI KEPA,JAKARTA BARAT,JAWA BARAT,0,
LT,19227636614000,"ASIAN BELTINDO JAYA,PT",SEMARANG,A-31,94-124,0,0,_________________,BUBUTAN,SURABAYA,JAWA TIMUR,0,
LT,314604794642000,PT. ANUGRAH ANEKABOX,"KM. 28 , DUSUN  LEGUNDI",-,-,6,2,DRIYOREJO,KRIKILAN ,GRESIK,JAWA TIMUR,61177,
LT,23771736614001,PT. SURYA JAYA PERKASA,MARGOMULYO PERMAI ,AC,4,0,0,ASEMROWO,GREGES,SURABAYA,JAWA TIMUR,0,031 - 7496308
LT,12322897631000,PT. DELPHIA PRIMA JAYA ,JL. JEMURSARI 97 ,-,-,0,0,WONOCOLO,JEMUR WONOSARI,SURABAYA,JAWA TIMUR,0,
LT,13636741028000,PT. SANI TIARA PRIMA,JL. BIAK NO. 31 - 8 ,-,-,0,0,GAMBIR,CIDENG,JAKARTA PUSAT,DKI JAKARTA RAYA,10150,
LT,312174162071000,PT. TRIJAYA GLOBAL MARINDO,"GRAHA MANDIRI LT.2 , JL. IMAM BONJOL NO. 61",-,-,0,0,MENTENG,MENTENG,JAKARTA PUSAT,DKI JAKARTA,0,
LT,315568089412000,PT. SURGANYA MOTOR INDONESIA,JL. H. DIMUN RAYA BBM ,-,109 - 110,1,11,CILODONG,SUKAMAJU,DEPOK,JAWA BARAT,0,
LT,14385769641000,PT. KURNIA ANGGUN,DESA BANGUN,-,-,0,0,PUNGGING,BANGUN,MOJOKERTO,JAWA TIMUR,61384,0321 - 591341
LT,711374025711000,PT. KALTA JASATAMA MANDIRI,JL. PANGLIMA BATUR ,-,5A,3,12,PAHADUT,LANGKAI,PALANGKA RAYA,KALIMANTAN TENGAH,0,
LT,317039287432000,CV. PUTRA BIMA,JL. PRIMADANA II,C1,28,9,10,JATI ASIH ,JATI SARI,BEKASI,JAWA BARAT,0,SUMARNO
LT,716167812018000,PT. GEBE INDUSTRY NICKEL,"GD. SUDIRMAN PLAZA - PLAZA MAREIN LT. 10 , JL. JEND. SUDIRMAN KAV. 76 - 78 ",-,-,0,0,SETIABUDI,SETIA BUDI,JAKARTA SELATAN,DKI JAKARTA,0,
LT,315779587603000,CV. BIMA REKSA,SUKO LEGOK,-,-,12,4,SUKODONO,-,SIDOARJO,JAWA TIMUR,0,
LT,23913270641000,PT. MULTI BETON KARYA MANDIRI,PONDOK JATI ,A1,5,32,8,BUDURAN,PAGERWOJO,SIDOARJO,JAWA TIMUR,61252,
LT,10715886055000,PT. JI SHUI MULIA ABADI,JALAN TANJUNG SARI NO. 40 - AM ,-,-,0,0,SUKOMANUNGGAL,-,SURABAYA,JAWA TIMUR,0,
LT,29690880609000,CV. BIRO TEKNIK SULAMTO,JL. MARGOREJO ,-,15 - F,3,4,WONOCOLO,MARGOREJO,SURABAYA,JAWA TIMUR,60238,
LT,700128630003000,PT. BRANJANGAN PUTRA UTAMA,JL. TANAH ABANG 1,-,11 - F,8,8,GAMBIR,PETOJO SELATAN,JAKARTA PUSAT,DKI JAKARTA,10160,021 - 3505994
LT,17185661604000,PT. MANUNGGAL SUKO JAYA,JL. MASPION ROMOKALISARI I,XII,H-1,2,1,BENOWO,ROMOKALISARI,SURABAYA,JAWA TIMUR,0,031 - 3977406/7
LT,11225729092000,PT. ALUMINDO LIGHT METAL INDUSTRY,-,-,-,0,0,GEDANGAN ,SAWOTRATAP,SIDOARJO,JAWA TIMUR,0,
LT,10716249052000,PT. KING JIM INDONESIA,"JL. REMBANG INDUSTRI II / 1 , PIER - PANDEAN",-,-,0,0,REMBANG,-,PASURUAN,JAWA TIMUR,67152,0343 - 740166 / 9
LT,719085599655000,CV. TIMBER GLOBAL INDUSTRI,JL. GATOTKOCO,-,-,4,12,PARE,GEDANGSEWU,KEDIRI,JAWA TIMUR,0,
LT,3889151625000,PEMEGANG KAS KANTOR DINAS LINGKUNGAN HIDUP KOTA PROBOLINGGO,JL. HAYAM WURUK ,-,57,0,0,MAYANGAN,JATI,PROBOLINGGO,JAWA TIMUR,0,
LT,767385743618000,CV. INDO TEHNIK,BABATAN PILANG 7 NO. 18,-,-,0,0,WIYUNG,BABATAN ,SURABAYA,JAWA TIMUR,0,
LT,315827741606000,CV. ANIDA JAYA ABADI,PERUM SEMAMPIR PRAJA,-,44,10,7,SUKOLILO,SEMOLOWARUU,SURABAYA,JAWA TIMUR,0,
LT,41476490614001,BAMBANG HARIYANTO,RADEN SALEH ,I,38-40,0,0,__________________,_________________,SURABAYA,JAWA TIMUR,0,
LT,17427469086000,PT. SETIA PESONACIPTA,RUKO PURI KENCANA ,K 6,5 - G,0,0,KEMBANGAN,KEMBANGAN SELATAN,JAKARTA BARAT,DKI JAKARTA,11610,
LT,22075139615000,CV. MITRA ANDALAN SUKSES,JL. TENGGILIS MEJOYO,AI,43 B,0,0,RUNGKUT,KALIRUNGKUT ,SURABAYA,JAWA TIMUR,60293,031 - 8470290
LT,33384017612000,CV. ANEKA SURYA ENERGI,JL. MAYJEN SUNGKONO ,5,"B-C , 6 - 7",0,0,KEBOMAS,SEGOROMADU,GRESIK,JAWA TIMUR,0,
LT,746631308654000,CV. DOKO,JALAN SEGARAN GANG AKASIA KAVLING UTARA ,-,-,14,10,PAKISAJI,KENDAL PAYAK,MALANG,JAWA TIMUR,0,
LT,28275915643000,CV. TIGA BERLIAN TEKNIK,KOMP WEST GATE DIAMOND,B,43,4,2,GEDANGAN,WEDI ,SIDOARJO,JAWA TIMUR,61254,
LT,312346653602000,PT. SUN POWER CERAMICS,JL. NGORO INDUSTRI PERSADA,R,2A,0,0,NGORO,LOLAWANG,MOJOKERTO,JAWA TIMUR,0,
LT,28761294603000,PT. UNITED FARMATIC INDONESIA,JL. RAYA PILANG KM. 08 / 200,-,-,12,6,WONOAYU,PILANG,SODOARJO,JAWA TIMUR,0,
LT,31960362526000,PT. SINERGI MULTI TEKNINDO,JL. MOJO ,-,-,4,8,LAWEYAN,KARANGASEM,SURAKARTA,JAWA TENGAH,0,
LT,22108765643000,CV. JAYATAMA TEKNIK,JALAN PALEM I,TC,32,5,2,WARU,PERTOKOAN PCI WADUNGSARI,SIDOARJO,JAWA TIMUR,61256,
LT,15679350624001,PT. HAKIKI DONARTA,RAYA KEMIRISEWU,-,-,1,3,PANDAAN,KEMIRISEWU,PASURUAN,JAWA TIMUR,0,
LT,19670116038000,PT. TRIMITRA WISESA ABADI,LINDETEVES TRADE CENTER LANTAI 2 BLOK C-43 NO. 27 - 28,-,127,1,6,TAMAN SARI,MANGGA BESAR,JAKARTA BARAT,DKI JAKARTA,11180,021 - 5527577
LT,14678635651000,PT. PANVERTA CAKRA KENCANA,DESA SUMBEREJO,-,-,0,0,PANDAAN,SUMBEREJO,PASURUAN,JAWA TIMUR,67156,
LT,667492250418000,PT. SEPATAN JAYA ENGINEERING,KP. UTAN JATI,-,-,3,1,KOSAMBI,JATI MULYA,TANGERANG,BANTEN,15211,
LT,25294117612000,CV. BHIMA PERKASA,JL. BARABAI ,I,22,6,10,MANYAR,SUCI,GRESIK,JAWA TIMUR,61151,031 - 3958891
LT,733286272606000,PT. ASTA ADIWANGSA PERKASA,"DESA  SAWANGAN NUSA DUA SELATAN , LINGKUNGAN SAWANGAN",-,-,0,0,KUTA SELATAN,BENOA ,BADUNG,BALI,0,
LT,23844483624000,PT. FORTUNA INDUSTRY PLASTIC,KANTOR DESA SUMBERSUKO,-,-,3,2,GEMPOL,SUMBER SUKO,PASURUAN,JAWA TIMUR,67155,
LT,26636043031000,PT. TAMTAMA PERKASA,"WISMA BARITO PACIFIC GD. B LT.9 , JALAN LETJEN S PARMAN KAV. 62 - 63",-,-,0,0,PALMERAH,SLIPI,JAKARTA BARAT,DKI JAKARTA RAYA,11410,
LT,30253892643000,PT. SARANA MITRA SEJATI,KOMP. PERGD. TIARA JABON,E II,12,0,0,WARU,TAMBAKSAWAH,SIDOARJO,JAWA TIMUR,61256,
LT,30252811643000,CV. NASA TERANG,MANGGIS,XI,M - 779,0,0,WARU,TAMBAKREJO,SIDOARJO,JAWA TIMUR,0,031-5454536
LT,712239086643000,CV. DIRACO,GRIYA PERMATA GEDANGAN,N-1,2,0,0,GEDANGAN,KEBONANOM,SIDOARJO,JAWA TIMUR,0,
LT,14294854607000,PT. ANUGRAH NUSANTARA SEJAHTERA,"JL. KETAMPON RUKO PERMATA BINTORO KAV. 136 - 137 , DR. SUTOMO",-,-,0,0,TEGALSARI ,DR. SUTOMO,SURABAYA,JAWA TIMUR,60264,
LT,20110391641000,PT. INDU MANIS,JL. KIG RAYA BARAT KAVLING G - 1,-,-,0,0,KEBOMAS,RANDUAGUNG,GRESIK,JAWA TIMUR,0,
LT,28259927604000,CV. VARIAN TEKNIK,PERUM ALAM GALAXI,A,3-Aug,3,4,SAMBIKEREP,SAMBIKEREP,SURABAYA,JAWA TIMUR,60217,
LT,31203094605000,PT. ARTODA BERSAUDARA,JL. KEMAYORAN BARU,-,19 - 21,9,2,KREMBANGAN,KREMBANGAN SELATAN,SURABAYA,JAWA TIMUR,0,
LT,311951313602000,PT. PUTRA RESTU IBU ABADI,JALAN RAYA KEDUNGSARI,-,-,1,1,KEMLAGI,KEDUNGSARI,MOJOKERTO,JAWA TIMUR,0,
LT,316383728602000,PT. MEKABOX INTERNATIONAL,TANJANGRONO,-,-,0,0,NGORO,TANJANGRONO,MOJOKERTO,JAWA TIMUR,0,
LT,15462195641000,PT. PRAMONO IRINDO JAYA,SUKODONO,-,-,3,6,GEDANGAN ,KEBOAN ANOM,SIDOARJO,JAWA TIMUR,61254,031-8910548/9
LT,22092795631000,PT. SUMATRACO LANGGENG ABADI,PERUM GRAHA FAMILI ,M,62,0,0,DUKUH PAKIS,PRADAH KALIKENDAL,SURABAYA,JAWA TIMUR,60226,
LT,11397676528000,PT. TUNGGAK WARU SEMI,JL. RAYA SOLO - SRAGEN KM. 7.7,-,-,0,0,JATEN,JETIS,KARANGANYAR,JAWA TENGAH,57731,0271-825046
LT,14398705615000,PT. WIDYA CIPTA TEHNIK,JALAN RAYA WIGUNA TENGAH ,-,44,3,3,GUNUNG ANYAR,GUNUNG ANYAR,SURABAYA,JAWA TIMUR,60294,031-8295054
LT,16730582631000,PT. TERAPAN NILAIOSILASI INDONESIA,JL. RAYA KERTAJAYA INDAH 153,P,116,0,0,SUKOLILO,GEBANG PUTIH ,SURABAYA,JAWA TIMUR,60117,031-5956289-92
LT,26704494606000,PT. TENO TRACT INDONESIA,RAYA KERTAJAYA INDAH TIMUR 153 ,P,116,0,0,SUKOLILO,GEBANG PUTIH,SURABAYA,JAWA TIMUR,60117,
LT,70385984606000,"AFANDI TATA, TJHIN (DWI TUNGGAL JAYA)",GUBENG KERTAJAYA 7-J / 14-A,-,-,9,4,GUBENG,AIRLANGGA,SURABAYA,JAWA TIMUR,60286,031 - 5016062
LT,662639186614000,PT. SUMBER TEKNIK INDONESIA,RAYA DUPAK 65,A,6,7,5,____________,GUNDIH,SURABAYA,JAWA TIMUR,0,
LT,14661573614000,PT. JATMIKO CIPTA KARYA,Raden Saleh,_____,32,0,0,________________,______________,SURABAYA,JAWA TIMUR,0,
LT,708186390612000,PT. HASIL KAYU LESTARI,JALAN RAYA GOLOKAN,-,-,1,5,SIDAYU,GOLOKAN,GRESIK,JAWA TIMUR,0,
LT,20267597052000,PT. SPEED MIX,JL. RAYA BYPASS KRIAN KM.27,-,-,4,2,KRIAN,SIDOMOJO,SIDOARJO,JAWA TIMUR,61262,
LT,14539225651000,PT. DOMUSINDO PERDANA,JL. WICAKSANA,-,-,0,0,BEJI ,GUNUNG GANGSIR,PASURUAN,JAWA TIMUR,67154,
LT,11485372631000,PT. GARINDO SEJAHTERA ABADI,JL. KERTOPATEN 44,-,-,0,0,SIMOKERTO,SIDODADI,SURABAYA,JAWA TIMUR,0,
LT,316278456501000,PT. BUMI INDO JAYA,JL. RAYA KRAMAT KM. 7,-,-,5,1,KRAMAT,KRAMAT,TEGAL,JAWA TENGAH,0,0283-4532888
LT,15266828641000,PT. MULTIPACK UNGGUL ,JL. DRIYOREJO KM.23,-,-,0,0,DRIYOREJO,DRIYOREJO,GRESIK,JAWA TIMUR,61177,
LT,801210261035000,PT. ALISON JAYA ABADI,RUKO KEDOYA CENTER,A-6  JL. RAYA PEJUANGAN,1,15,10,KEBON JERUK,KEBON JERUK,JAKARTA BARAT,DKI JAKARTA,0,
LT,316317106606000,PT. BETON PRIMA INTI,JL. RAYA KERTAJAYA INDAH TIMUR,P116,153,0,0,SUKOLILO,GEBANG PUTIH,SURABAYA,JAWA TIMUR,60116,
LT,759921117617000,PT. INTI KIMIA LESTARI ABADI,TAMAN PINANG INDAH,G,6-Jul,31,5,SIDOARJO,LEMAHPUTRO,SIDOARJO,JAWA TIMUR,0,
LT,723880514643000,CV. ANUGERAH CAHAYA ABADI,KOMP. PERGUDANGAN DAN INDUSTRI MEIKO ABADI,B,23-A,5,2,GEDANGAN,WEDI,SIDOARJO,JAWA TIMUR,61254,
LT,314733353603000,PT. PETRA PERSADA SENTOSA,JL. RAYA BY PASS KRIAN KM. 30,-,-,0,0,KRIAN,KRATON,SIDOARJO,JAWA TIMUR,0,
LT,11069291511000,PT. YASA WAHANA TIRTA SAMUDERA,JL. DELI NO. 17,-,-,0,0,SEMARANG UTARA,TANJUNG MAS,SEMARANG,JAWA TENGAH,50129,
LT,707809687605000,CV. MENARA BANGUN SEJAHTERA,GRESIK GADUKAN,-,298,0,0,KREMBANGAN,KEL. MOROKREMBANGAN,SURABAYA,JAWA TIMUR,0,
LT,762812030006000,PT. TRUBA TRI DAYA,JL. SUKRI SAKRI,-,25,6,7,CAKUNG,CAKUNG BARAT,JAKARTA TIMUR,DKI JAKARTA,0,
LT,18018010721000,PT. AIR KRISTAL LESTARI,JL. MILONO ,-,23,40,0,BALIKPAPAN TENGAH,GUNUNGSARI ILIR,BALIKPAPAN,KALIMANTAN TIMUR,0,
LT,31046709722000,CV. BUMI MANUNGGAL GRACIA,JL. A YANI ,-,25,16,0,SAMARINDA UTARA,SUNGAI PINANG DALAM,SAMARINDA,KALIMANTAN TIMUR,75117,
LT,751684754105000,PT. ERA GLOBAL CONSERVASI,JL. KUALA LANGSA KM. 6 GAMPONG ,-,-,0,0,LANGSA BARAT,KUALA LANGSA ,LANGSA,NANGGROE ACEH DARUSSALAM (NAD),24410,
LT,22090526618000,CV. TRI TUNGGAL TEKNIK,"JL. HR MUHAMMAD , SURYA INI PERMATA ",A,21,0,0,DUKUH PAKIS,PRADAH KALIKENDAL,SURABAYA,JAWA TIMUR,60226,
LT,24579187604000,CV. YESINDO UTAMA,JL. RAYA WISMA LIDAH KULON,-,73,2,3,LAKARSANTRI,LIDAH KULON,SURABAYA,JAWA TIMUR,60213,
LT,317777340643000,CV. STAR INDONESIA,PERUM PERTAMA SIWALAN INDAH,G,6-Apr,0,0,BUDURAN,SIWALANPANJI,SIDOARJO,JAWA TIMUR,0,
LT,802105049642000,PT. AUTONICS PACK MACHINERY,JL. RAYA CANGKIR KM.21  NO. 302 - G ,-,-,0,0,DRIYOREJO,CANGKIR,GRESIK,JAWA TIMUR,0,
LT,727707465613000,PT. MITRAINTI SEJAHTERA ELETRINDO,PENGAMPON SQUARE ,"D-31 , JL. SEMUT BARU",-,0,0,PABEAN CANTIAN,BONGKARAN,SURABAYA,JAWA TIMUR,0,
LT,16777690614000,CV. ANEKA BAJA,"JL. RADEN SALEH 43 - A , KAV. 18",-,-,0,0,BUBUTAN,BUBUTAN,SURABAYA,JAWA TIMUR,0,
LT,31937220615000,PT. PANCAWALA INDOCHEMICAL,KENDANGSARI YKP ,III,22,2,1,TENGGILIS MEJOYO,KENDANGSARI,SURABAYA,JAWA TIMUR,60292,
LT,14692073615000,CV. TRIYUDA MAJU,JL. RAYA KENDALSARI,-,4,0,0,RUNGKUT,PENJARINGAN SARI,SURABAYA,JAWA TIMUR,60297,
LT,719097602643000,PT. BERKAT AIRINDO KHARISMA,RUKO WADUNGSARI PERMAI,B,5,4,2,WARU,WADUNGSARI,SIDOARJO,JAWA TIMUR,0,
LT,11089869615000,PT. ALMICOS PRATAMA,JL. RUNGKUT INDUSTRI,III,33,0,0,GUNUNG ANYAR,RUNGKUT MENANGGAL,SURABAYA,JAWA TIMUR,60292,
LT,25407354605000,PT. KARUNIA PRIMA ENGINEERING,JL. SULUNG MAS,C,8,5,1,KREMBANGAN,KREMBANGAN SELATAN,SURABAYA,JAWA TIMUR,60175,
LT,11398294526000,PT. DJITOE INDONESIA TOBAKO,JL. LU ADISUCIPTO,-,51,2,11,LAWEYAN,KERTEN,SURAKARTA,JAWA TENGAH,57143,
LT,314710369413000,PT. VIKTORI PROFINDO ELEKTRIKA,JL. KAPUK TIMUR,F-23,20F  Ds 3,0,0,LIPPO CIKARANG,-,BEKASI,JAWA BARAT,17550,
LT,24574980517000,CV. ANUGRAH AGUNG,JL. RAYA METESEH NO. 9,-,-,0,0,TEMBALANG,METESEH,SEMARANG,JAWA TENGAH,0,
LT,29212230833000,PT. SARASWATI COCONUT PRODUCT,JL. TRANS SULAWESI KM. 19,-,-,0,0,AMPANA TETE,MANTANGISI,TOJO UNA UNA,SULAWESI TENGAH,0,
LT,23199912602001,PT. MULTI TECHNINDO,-,-,-,0,0,PUNGGING,DUSUN TUNGGAL PAGER,MOJOKERTO,JAWA TIMUR,61382,
LT,23134018651000,ANEKA GLASS ABADI,JL. RAYA GUNUNG GANGSIR RANDUPITU,-,-,0,0,GEMPOL,-,PASURUAN,JAWA TIMUR,0,
LT,28263630642000,CV. MAJU TEKNIK UTAMA,DS. KRIKILAN,-,-,7,3,DRIYOREJO,KRIKILAN,GRESIK,JAWA TIMUR,0,
LT,11227733641000,PT. ARES KUSUMA RAYA,JL. RAYA COKLAT,-,1,8,3,DRIYOREJO,TENARU,GRESIK,JAWA TIMUR,61177,
LT,24413593725000,PT. DAVIDI INTERNATIONAL,JL. SULTAN HASANUDDIN ,-,888,2,0,BALIKPAPAN BARAT,KARIANGAU,BALIKPAPAN,KALIMANTAN TIMUR,0,
LT,737314625603000,CV. ALVIN JAYA,MASANGAN WETAN,-,0,8,2,SUKODONO,MASANGANWETAN,SIDOARJO,JAWA TIMUR,0,
LT,760026310643000,CV. DELTA KARYA TEHNIK,TAMAN HEDONA REGENCY,C - 1,2,16,6,BUDURAN,PRASUNG,SIDOARJO,JAWA TIMUR,0,TABRANI - 0815 5330 0566
LT,316570787712000,CV. MITRA BINA ABADI,JL. KARET ,-,110,20,8,MENTAWA BARU KETAPANG,MENTAWA BARU HULU,KOTAWARINGIN,KALIMANTAN TENGAH,0,
LT,813289360652000,PT. ENERGY MEGATRANS ELECTRINDO,JL. SUNANDAR PRIYO SUDARMO,-,5,0,0,BLIMBING,PURWANTORO,MALANG,JAWA TIMUR,0,
LT,15313596631000,PT. UNTUNG BERSAMA SEJAHTERA,JL. KENJERAN NO. 395 - 397 - 399,-,-,0,0,TAMBAKSARI,GADING,SURABAYA,JAWA TIMUR,60134,
LT,26664508622000,PT. SUMBER TIRTA PAMENANG,JL. RAYA BALEKAMBANG,-,116,0,0,PESANTREN,BLABAK,KEDIRI,JAWA TIMUR,64135,081 2341 8889
LT,749507828427000,CV. SAMUDRA TIMUR RAYA ,JL. PISANG AMBON ,3,20,4,17,BEKASI BARAT,KOTA BARU,BEKASI ,JAWA BARAT,0,
LT,11091899616000,PT. KENCANA TEKNIKATAMA SENTOSA,JL. NGAGLIK ,-,51,0,0,SIMOKERTO,TAMBAKREJO,SURABAYA,JAWA TIMUR,0,
LT,211140231401000,PT. INDO PANGAN NUSANTARA,PANCATAMA VI KAV. 85,-,-,0,0,CIKANDE,SUKATANI,SERANG BANTEN,JAWA BARAT,0,
LT,719991044726000,PT. BINTANG BABULU MANDIRI,JL. PROPINSI ,-,-,1,0,PENAJAM,PENAJAM,PENAJAM PASER UTARA,KALIMANTAN TIMUR,76141,
LT,813845203804000,CV. PRATAMA GLOBAL MOTORINDO,JL. SUNGAI PAREMAN,-,38 B,0,0,UJUNG PANDANG,LAJANGIRU,MAKASSAR,SULAWESI SELATAN,0,P. LUKMAN
LT,22454938027000,PT. RAVINCO PROCESS & PACKAGING,RUKO MEGA GROSIR CEMPAKA MAS ,M1,33,0,0, KEMAYORAN ,"JL LETJEN SUPRAPTO , SUMUR BATU",JAKARTA PUSAT,DKI JAKARTA,10640,
LT,729516492618000,PT. NASTEK MUSTIKA ABADI,KEBRAON INDAH PERMAI,A,17,1,13,KARANG PILANG,KEBRAON,SURABAYA,JAWA TIMUR,0,
LT,14402366641000,PT. VARIA USAHA BETON,JL. LETJEND S PARMAN ,-,38,0,0,WARU,WARU,SIDOARJO,JAWA TIMUR,61256,
LT,315619528013000,PT. MANDIANGIN BATUBARA,JL. HAYAM WURUK LRG. SETIA,-,16,17,0,TALANG JAUH,JELUTUNG,JAMBI,JAMBI,36133,
LT,315003798604000,CV. KARISMA JAYA,VILA BUKIT INDAH ,AA-4,5,3,6,LAKAR SANTRI,LIDAH WETAN,SURABAYA,JAWA TIMUR,60213,
LT,22967574641000,PT. HASIL KARYA ,"BY PASS KRIAN KM. 29.3 , JL. SAWAH KETAPANG",-,-,1,1,KRIAN ,TAMBAK KEMERAKAN,SIDOARJO,JAWA TIMUR,61262,
LT,17434259641000,PT. HASIL KARYA,JL. RAYA JETIS ,-,-,0,0,JETIS,PARINGAN,MOJOKERTO,JAWA TIMUR,0,
LT,23212343038000,PT. INDUSTRIAL MULTI FAN ,HAYAM WURUK ,QQ,111,0,0,__________,MAPHAR,JAKARTA BARAT,JAWA BARAT,0,
LT,17398363614000,CV. JAYA MULYA,JL. PENGHELA 32 I BUBUTAN,--,-,0,0,-,-,SURABAYA,JAWA TIMUR,0,
LT,14260095651000,PT. ATLANTIC BIRU RAYA,DESA NGADIMULJO,-,-,1,2,SUKOREJO,NGADIMULYO,PASURUAN,JAWA TIMUR,67161,
LT,18359638511000,PT. SINAR INDAH KERTAS,JL. PATI - KUDUS KM. 4,-,-,0,0,MARGOREJO,PEGANDAN,PATI,JAWA TENGAH,59163,
LT,665372215732000,PT. TARSIS MURNI ANUGRAH,"JL. BARU RT. 003  RW. 002   LIANG ANGGANG BATI , TANAH LAUT",-,-,0,0,-,-,BANJAR BARU,KALIMANTAN SELATAN,0,
LT,30251821643000,CV. SETIA ABADI,"KOMP. GDG   PT. PURINIAGA,    JL. RAYA ",G7,11,5,2,WARU ,WADUNGSARI ,SIDOARJO,JAWA TIMUR,61256,
LT,726077282028000,PT. MANDIRI SEJAHTERA JAYA ABADI,MAJAPAHIT,-,34 / 20,0,0,GAMBIR,PETOJO SELATAN,JAKARTA PUSAT,DKI JAKARTA,0,
LT,10030096092000,PT. GAJAH TUNGGAL TBK,"WISMA HAYAM WURUK LT. 10 , JALAN HAYAM WURUK ",-,8,0,0,KEBON KELAPA GAMBIR,KEBON KELAPA GAMBIR,JAKARTA PUSAT,DKI JAKARTA,10120,
LT,20263802603000,PT. KUROMA ENGINEERING,JL. RAYA KLETEK KM.7 ,-,-,0,0,SUKODONO,KEBONAGUNG,SIDOARJO ,JAWA TIMUR,61258,
LT,21024393641000,PT. SARIMURNI JAYA,DUSUN JAPANAN,-,-,4,1,WONOAYU,POPOH,SIDOARJO,JAWA TIMUR,0,
LT,730101177617000,CV. ADYA TATA MANDIRI,PERUM PURI INDAH LESTARI FR,-,6,0,0,SIDOARJO,SUKO,SIDOARJO,JAWA TIMUR,0,
LT,12560710609000,PT. DIAN HERBAHAL GROUP,JL. RAYA WONOKROMO,-,107,0,0,WONOKROMO,JAGIR,SURABAYA,JAWA TIMUR,60244,031 - 
LT,311999569614000,CV. ANUGERAH INDAH ABADI,TAMBAK LANGON,-,8,0,0,ASEM ROWO,TAMBAK LANGON,SURABAYA,JAWA TIMUR,60184,
LT,29515046722000,PT. BUDI LUHUR TEKNIK,JL. MARKISA ,-,34,8,3,SAMARINDA ULU,GUNUNG KELUA ,SAMARINDA,KALIMANTAN TIMUR,0,
LT,42131417655000,DR. SARDJONO,JL. LAWU,-,4,0,0,PARE,PARE,KEDIRI,JAWA TIMUR,0,
LT,810332569603000,CV. RIZKY UTAMA ENGINEERING,DUSUN RONGGOJALU,-,-,12,4,SUKODONO,MASANGAN WETAN,SIDOARJO,JAWA TIMUR,0,
LT,314006495122000,CV. ANUGERAH PUTRA UTAMA,JL. TURI ,-,4,0,0,MEDAN AMPLAS,TIMBANG DELI,MEDAN,SUMATERA UTARA,20148,
LT,22100689616000,PT. COTTONSARI,KAPASAN ,-,62,0,0,SIMOKERTO,SIMOKERTO,SURABAYA,JAWA TIMUR,0,
LT,18201046073000,PT. SINAR KARYA DUTA ABADI,SENTRA NIAGA PURI INDAH ,T2,24,2,2,KEMBANGAN SELATAN,KEMBANGAN,JAKARTA RAYA,DKI JAKARTA RAYA,11610,031-8982221
LT,703193334606000,CV. INDOMARIN NIAGA,JL. PUCANG ANOM TIMUR 2,-,22,0,0,GUBENG,KERTAJAYA,SURABAYA,JAWA TIMUR,0,
LT,13538111038000,PT. PANCA BUDI IDAMAN,GREEN VILLE ,AX,31 - 32,11,14,KEBON JERUK,KEBON JERUK,JAKARTA BARAT,DKI JAKARTA,0,
LT,315924209602000,PT. S&S HYGIENE SOLUTION,NGORO INDUSTRIAL PARK,B2 ,3-B,0,0,NGORO,LOLAWANG,MOJOKERTO,JAWA TIMUR,0,
LT,312944408617000,CV. WIJAYA TEKNIK ABADI,PURI INDAH,BB,2,30,9,SIDOARJO,SUKO,SIDOARJO,JAWA TIMUR,0,
LT,15409022308001,PT. SURYABUMI AGROLANGGENG,"GEDUNG GOZCO PLANTATIONS, JL. LETJEN HARUN SOHAR",-,1,43,11,SUKARAMI,KEBUN BUNGA ,PALEMBANG,SUMATERA SELATAN,0,
LT,31224454732000,CV. KARYA TEHNIK MANDIRI,JL. GOTONG ROYONG,-,-,11,3,LANDASAN ULIN,SYAMSUDIN NOOR,BANJARBARU,KALIMANTAN SELATAN,70724,
LT,311957260602000,CV. MULTI CONCRETE,DSN. KETIDUR ,-,-,1,1,KUTOREJO,PESANGGRAHAN,MOJOKERTO,JAWA TIMUR,0,
LT,14402838641000,PT. CALVARY ABADI,DESA KARANGKUTEN ,-,-,0,0,GONDANG,KARANGKUTEN,MOJOKERTO,JAWA TIMUR,0,
LT,11329356641000,PT. AGRINDO,DESA BAMBE,-,-,0,0,DRIYOREJO,BAMBE,GRESIK,JAWA TIMUR,0,
LT,61452454625000,SOEGIYONO GIMAN,JL. RAYA ,-,99  DS. KRAJAN,3,1,KEDUNGJAJANG ,WONOREJO,LUMAJANG ,JAWA TIMUR,0,
LT,316953595654000,PT. SUMBER ABADI BERSAMA,JL. BANYULEGI ,I,-,32,4,GONDANGLEGI,KETAWANG,MALANG,JAWA TIMUR,0,
LT,16130932611000,PT. INTIDAYA DINAMIKA SEJATI,WALIKOTA MUSTAJAB 59 - A,-,-,0,0,GENTENG,KETABANG,SURABAYA,JAWA TIMUR,0,
LT,16862948043000,"MANDIRISUKSES TEKNIKA PERKASA, PT",Boulevard Bgr Ruko Villa Gading Indah,A2,19,0,0,___________________,KELAPA GADING BARAT,JAKARTA UTARA,JAWA BARAT,0,
LT,21142054614000,ALFA MANDIRI,Demak Madya ,_____,10,2,10,_________________,Tembok Dukuh,Surabaya,Jawa Timur,0,
